"phoneme.name","p.val"
"bilabial plosive voiceless",0.602
"bilabial plosive voiceless palatalised",0.481
"bilabial plosive voiceless labialised",0.002
"bilabial plosive voiceless aspirated",0.08
"bilabial plosive voiceless glottalised",0.015
"bilabial plosive voiceless aspirated palatalised",0.096
"bilabial plosive voiceless glottalised palatalised",0
"bilabial plosive voiceless aspirated labialised",0.017
"bilabial plosive voiceless glottalised labialised",0
"bilabial plosive voiced",0.159
"bilabial plosive voiced palatalised",0.262
"bilabial plosive voiced labialised",0
"bilabial plosive voiced aspirated",0.003
"bilabial implosive voiced",0.242
"bilabial nasal voiceless",0.274
"bilabial nasal voiceless palatalised",0.00600000000000001
"bilabial nasal voiced",0.543
"bilabial nasal voiced palatalised",0.733
"bilabial nasal voiced labialised",0.031
"bilabial nasal voiced aspirated",0.081
"bilabial fricative voiceless",0.84
"bilabial fricative voiced",0.011
"bilabial fricative voiced palatalised",0
"bilabial affricate voiceless",0
"bilabial affricate voiced",0.08
"bilabial affricate voiced palatalised",0
"labial-velar approximant voiceless",0.152
"labial-velar approximant voiced",0.539
"labial-velar approximant voiced palatalised",0
"labial-velar approximant voiced aspirated",0.094
"labial-palatal approximant voiceless",0
"labial-palatal approximant voiced",0.231
"labiodental nasal voiced",0
"labiodental fricative voiceless",0.031
"labiodental fricative voiceless palatalised",0.721
"labiodental fricative voiceless labialised",0
"labiodental fricative voiceless glottalised",0
"labiodental fricative voiced",0.00800000000000001
"labiodental fricative voiced palatalised",0.799
"labiodental fricative voiced labialised",0
"labiodental fricative voiced aspirated",0.546
"labiodental approximant voiceless",0.704
"labiodental approximant voiceless palatalised",0
"labiodental affricate voiceless",0.51
"labiodental affricate voiceless aspirated",0
"labiodental affricate voiced",0.346
"interdental fricative voiceless",0.001
"interdental fricative voiceless glottalised",0
"interdental fricative voiced",0.003
"interdental fricative voiced palatalised",0
"interdental fricative voiced glottalised",0
"alveolar plosive voiceless",0.697
"alveolar plosive voiceless palatalised",0.903
"alveolar plosive voiceless labialised",0
"alveolar plosive voiceless aspirated",0.055
"alveolar plosive voiceless glottalised",0.025
"alveolar plosive voiceless aspirated palatalised",0.531
"alveolar plosive voiceless aspirated labialised",0
"alveolar plosive voiceless glottalised labialised",0
"alveolar plosive voiced",0.461
"alveolar plosive voiced palatalised",0.996
"alveolar plosive voiced labialised",0
"alveolar plosive voiced aspirated",0.883
"alveolar plosive voiced glottalised",0
"alveolar implosive voiced",0.125
"alveolar implosive voiced aspirated",0.0600000000000001
"alveolar nasal voiceless",0.035
"alveolar nasal voiceless palatalised",0
"alveolar nasal voiced",0.188
"alveolar nasal voiced palatalised",0.634
"alveolar nasal voiced aspirated",0.045
"alveolar trill voiceless",0.421
"alveolar trill voiceless palatalised",0.401
"alveolar trill voiced",0.535
"alveolar trill voiced palatalised",0.439
"alveolar trill voiced aspirated",0.44
"alveolar tap voiceless",0.044
"alveolar tap voiceless palatalised",0
"alveolar tap voiced",0.036
"alveolar tap voiced palatalised",0.802
"alveolar tap voiced aspirated",0.214
"alveolar lateral_tap voiced",0.0639999999999999
"alveolar fricative voiceless",0.106
"alveolar fricative voiceless palatalised",0.001
"alveolar fricative voiceless labialised",0
"alveolar fricative voiceless aspirated",0.074
"alveolar fricative voiceless glottalised",0
"alveolar fricative voiceless aspirated palatalised",0
"alveolar fricative voiced",0.101
"alveolar fricative voiced palatalised",0.291
"alveolar fricative voiced labialised",0
"alveolar fricative voiced glottalised",0
"alveolar lateral_fricative voiceless",0.137
"alveolar lateral_fricative voiceless palatalised",0.428
"alveolar lateral_fricative voiceless labialised",0
"alveolar lateral_fricative voiceless glottalised",0
"alveolar lateral_fricative voiced",0.002
"alveolar lateral_fricative voiced palatalised",0.991
"alveolar lateral_fricative voiced glottalised",0
"alveolar approximant voiceless",0.961
"alveolar approximant voiceless palatalised",0.392
"alveolar approximant voiced",0.029
"alveolar approximant voiced palatalised",0.037
"alveolar approximant voiced aspirated",0.802
"alveolar lateral_approximant voiceless",0.953
"alveolar lateral_approximant voiceless palatalised",0.413
"alveolar lateral_approximant voiced",0.022
"alveolar lateral_approximant voiced palatalised",0.04
"alveolar lateral_approximant voiced aspirated",0.815
"alveolar affricate voiceless",0.179
"alveolar affricate voiceless palatalised",0.729
"alveolar affricate voiceless labialised",0
"alveolar affricate voiceless aspirated",0.132
"alveolar affricate voiceless glottalised",0
"alveolar affricate voiceless aspirated labialised",0
"alveolar affricate voiceless glottalised labialised",0
"alveolar affricate voiced",0.598
"alveolar affricate voiced palatalised",0.036
"alveolar affricate voiced aspirated",0.049
"postalveolar fricative voiceless",0.056
"postalveolar fricative voiceless palatalised",0.636
"postalveolar fricative voiceless labialised",0.999
"postalveolar fricative voiceless aspirated",0.883
"postalveolar fricative voiceless glottalised",0
"postalveolar fricative voiced",0.042
"postalveolar fricative voiced palatalised",0.101
"postalveolar fricative voiced labialised",0.643
"postalveolar affricate voiceless",0.344
"postalveolar affricate voiceless palatalised",0.397
"postalveolar affricate voiceless labialised",0.368
"postalveolar affricate voiceless aspirated",0.851
"postalveolar affricate voiceless glottalised",0.103
"postalveolar affricate voiceless aspirated palatalised",0.073
"postalveolar affricate voiceless aspirated labialised",0
"postalveolar affricate voiceless glottalised labialised",0.931
"postalveolar affricate voiced",0.043
"postalveolar affricate voiced palatalised",0.02
"postalveolar affricate voiced labialised",0
"postalveolar affricate voiced aspirated",0.282
"hissing-hushing fricative voiceless",0
"hissing-hushing fricative voiceless labialised",0
"hissing-hushing fricative voiceless glottalised",0
"hissing-hushing fricative voiceless glottalised labialised",0
"hissing-hushing fricative voiced",0
"hissing-hushing fricative voiced labialised",0
"hissing-hushing affricate voiceless",0
"hissing-hushing affricate voiceless labialised",0
"hissing-hushing affricate voiceless aspirated",0
"hissing-hushing affricate voiceless glottalised",0
"hissing-hushing affricate voiceless aspirated labialised",0
"hissing-hushing affricate voiceless glottalised labialised",0
"hissing-hushing affricate voiced",0
"hissing-hushing affricate voiced labialised",0.001
"retroflex plosive voiceless",0
"retroflex plosive voiceless aspirated",0
"retroflex plosive voiced",0
"retroflex plosive voiced aspirated",0.001
"retroflex nasal voiced",0.109
"retroflex nasal voiced aspirated",0.619
"retroflex tap voiceless",0.045
"retroflex tap voiced",0
"retroflex tap voiced aspirated",0.214
"retroflex fricative voiceless",0
"retroflex fricative voiceless aspirated",0.261
"retroflex fricative voiced",0
"retroflex fricative voiced palatalised",1
"retroflex approximant voiceless",0
"retroflex approximant voiced",0.494
"retroflex lateral_approximant voiceless",0.00600000000000001
"retroflex lateral_approximant voiced",0.391
"retroflex affricate voiceless",0.005
"retroflex affricate voiceless aspirated",0.003
"retroflex affricate voiceless glottalised",0
"retroflex affricate voiced",0.001
"retroflex affricate voiced aspirated",0
"alveolo-palatal fricative voiceless",0.005
"alveolo-palatal fricative voiceless aspirated",0.025
"alveolo-palatal fricative voiceless glottalised",0
"alveolo-palatal fricative voiced",0.021
"alveolo-palatal affricate voiceless",0.134
"alveolo-palatal affricate voiceless aspirated",0.018
"alveolo-palatal affricate voiceless glottalised",0
"alveolo-palatal affricate voiced",0.2
"alveolo-palatal affricate voiced aspirated",0.243
"palatal plosive voiceless",0.955
"palatal plosive voiceless aspirated",0.562
"palatal plosive voiceless glottalised",0
"palatal plosive voiced",0.351
"palatal plosive voiced aspirated",0.264
"palatal implosive voiced",0.598
"palatal nasal voiceless",0.0590000000000001
"palatal nasal voiced",0.314
"palatal fricative voiceless",0.197
"palatal fricative voiceless aspirated",0.034
"palatal fricative voiced",0.532
"palatal approximant voiceless",0.024
"palatal approximant voiced",0.148
"palatal approximant voiced aspirated",0.045
"palatal lateral_approximant voiced",0.785
"palatal affricate voiceless",0.74
"palatal affricate voiceless aspirated",0.725
"palatal affricate voiced",0.756
"palatal-velar fricative voiceless",0
"velar plosive voiceless",0.388
"velar plosive voiceless palatalised",0.81
"velar plosive voiceless labialised",0.233
"velar plosive voiceless aspirated",0.222
"velar plosive voiceless glottalised",0.00900000000000001
"velar plosive voiceless aspirated palatalised",0.001
"velar plosive voiceless glottalised palatalised",0
"velar plosive voiceless aspirated labialised",0.082
"velar plosive voiceless glottalised labialised",0.11
"velar plosive voiced",0.418
"velar plosive voiced palatalised",0.379
"velar plosive voiced labialised",0.368
"velar plosive voiced aspirated",0
"velar implosive voiced",0.639
"velar nasal voiceless",0.212
"velar nasal voiceless palatalised",0
"velar nasal voiced",0.17
"velar nasal voiced palatalised",0
"velar nasal voiced labialised",0.011
"velar nasal voiced aspirated",0.151
"velar fricative voiceless",0.005
"velar fricative voiceless palatalised",0.218
"velar fricative voiceless labialised",0
"velar fricative voiceless aspirated",0.595
"velar fricative voiced",0
"velar fricative voiced palatalised",0
"velar fricative voiced labialised",0
"velar approximant voiced",0.162
"velar affricate voiceless",0
"velar affricate voiceless aspirated",0
"velar affricate voiceless glottalised",0
"velar affricate voiced",0
"uvular plosive voiceless",0
"uvular plosive voiceless palatalised",0
"uvular plosive voiceless labialised",0.101
"uvular plosive voiceless aspirated",0.224
"uvular plosive voiceless glottalised",0.105
"uvular plosive voiceless aspirated palatalised",0.001
"uvular plosive voiceless glottalised palatalised",0
"uvular plosive voiceless aspirated labialised",0.904
"uvular plosive voiceless glottalised labialised",0
"uvular plosive voiced",0.972
"uvular plosive voiced labialised",0
"uvular nasal voiced",0.24
"uvular trill voiced",0.234
"uvular fricative voiceless",0.175
"uvular fricative voiceless palatalised",0
"uvular fricative voiceless labialised",0.296
"uvular fricative voiced",0.107
"uvular fricative voiced palatalised",0
"uvular fricative voiced labialised",0.254
"uvular affricate voiceless",0.602
"uvular affricate voiceless aspirated",0
"uvular affricate voiceless glottalised",0.162
"uvular affricate voiced",0.283
"pharyngeal fricative voiceless",0.2
"pharyngeal fricative voiceless palatalised",0
"pharyngeal fricative voiceless labialised",0
"pharyngeal fricative voiced",0.085
"glottal plosive",0.535
"glottal fricative voiceless",0.428
"glottal fricative voiced",0.103
"epiglottal plosive voiceless",0.786
"epiglottal fricative voiceless",0
"epiglottal fricative voiceless labialised",0
"epiglottal fricative voiced",0.083
"epiglottal fricative voiced labialised",0
