\relax 
\citation{trubetzkoy_grundzuge_1939}
\citation{hockett_manual_1955}
\citation{clements_feature_2003,mielke_emergence_2008}
\citation{dunbar_geometric_2016}
\citation{liljencrants_numerical_1972,stevens_quantal_1989,cotterell_probabilistic_2017}
\citation{maddieson1984patterns}
\citation{gordon2016phonological}
\citation{Atkinson2011}
\citation{Jaeger2011}
\citation{Fought2004,Ember2007}
\citation{Hay2007,trudgill2011,Atkinson2011,Wichmann2011,Nettle2012}
\citation{Donohue2011,Moran2012}
\citation{Everett2013}
\citation{Ladd2015}
\@writefile{toc}{\contentsline {section}{\numberline {1}Introduction}{1}}
\newlabel{sec:introduction}{{1}{1}}
\citation{Maddieson1991}
\citation{Chang2015,wichmann_genealogical_2017}
\citation{Bickel2013}
\citation{Ladd2015}
\citation{nichols1992,Thomason2000}
\citation{enfield_areal_2005}
\citation{guldemann_macro-sudan_2008}
\citation{emeneau_india_1956}
\citation{friedman_after_2000}
\citation{michael_exploring_2014}
\citation{campbell_areal_2006}
\citation{campbell_areal_2006}
\citation{campbell_why_2017}
\citation{Dryer1989}
\citation{bickel_oceania_2006}
\citation{Fortescue1998}
\citation{daume_iii_non-parametric_2009}
\citation{WichmannHolman2009}
\citation{wals}
\citation{maddieson1984patterns,MaddiesonPrecoda1992}
\citation{phoible}
\citation{saphon}
\citation{eurphon}
\citation{Towner2012,yamauchi2016}
\citation{Delaunay1934}
\@writefile{toc}{\contentsline {section}{\numberline {2}Data and the neighbour graph}{4}}
\newlabel{sec:data_and_the_neighbour_graph}{{2}{4}}
\@writefile{toc}{\contentsline {subsection}{\numberline {2.1}Data}{4}}
\newlabel{sub:data}{{2.1}{4}}
\@writefile{toc}{\contentsline {subsubsection}{\numberline {2.1.1}The neighbour graph}{4}}
\newlabel{ssub:the_neighbour_graph}{{2.1.1}{4}}
\citation{da_silva_comparative_2016}
\citation{da_silva_comparative_2016}
\citation{murawaki_statistical_2018}
\citation{murawaki_statistical_2018}
\@writefile{lof}{\contentsline {figure}{\numberline {1}{\ignorespaces Neighbour graph of the languages of Eurasia used for this study}}{5}}
\newlabel{fig:graph}{{1}{5}}
\@writefile{lot}{\contentsline {table}{\numberline {1}{\ignorespaces Classification of language pairs in the dataset}}{6}}
\newlabel{lp-groups}{{1}{6}}
\@writefile{toc}{\contentsline {section}{\numberline {3}Pairwise distances between inventories}{6}}
\newlabel{sec:pairwise_distances_between_inventories}{{3}{6}}
\citation{lindblom_maddieson_1988}
\@writefile{lof}{\contentsline {figure}{\numberline {2}{\ignorespaces Boxplots of Jaccard (top) and CRCJ (bottom) distances between language pairs in different groups}}{8}}
\newlabel{fig:boxplots}{{2}{8}}
\@writefile{toc}{\contentsline {section}{\numberline {4}Predicting phonological distributions}{8}}
\newlabel{sec:predicting_phonological_distributions}{{4}{8}}
\@writefile{toc}{\contentsline {subsection}{\numberline {4.1}Neighbour-Pressure Metric}{8}}
\newlabel{sub:neighbour_pressure_metric}{{4.1}{8}}
\citation{Jaeger2011}
\citation{WichmannHolman2009,kalyan_mapping_2017}
\citation{Jaeger2011}
\citation{Jaeger2011}
\citation{Jaeger2011}
\citation{potter_permutation_2005}
\citation{potter_permutation_2005}
\citation{janssen_randomization_2006}
\newlabel{npm}{{3}{10}}
\@writefile{toc}{\contentsline {subsection}{\numberline {4.2}Modelling consonant distributions with areal data using logistic regression}{10}}
\newlabel{sub:modeling_consonant_distributions_with_areal_data}{{4.2}{10}}
\citation{benjamini1995controlling}
\citation{benjamini1995controlling}
\citation{bashir_contact_2016}
\citation{blevins_new_2006}
\@writefile{toc}{\contentsline {subsection}{\numberline {4.3}Non-linear modeling}{11}}
\newlabel{sub:non_linear_models}{{4.3}{11}}
\@writefile{lot}{\contentsline {table}{\numberline {2}{\ignorespaces Consonants whose distribution is significantly dependent on NPM}}{12}}
\newlabel{npm-dependent-consonants}{{2}{12}}
\@writefile{toc}{\contentsline {subsubsection}{\numberline {4.3.1}Data and models}{12}}
\newlabel{ssub:data_and_models}{{4.3.1}{12}}
\newlabel{par:data}{{4.3.1}{12}}
\@writefile{toc}{\contentsline {paragraph}{Data}{12}}
\citation{glmnet}
\citation{scikit-learn}
\citation{tensorflow2015-whitepaper}
\@writefile{lot}{\contentsline {table}{\numberline {3}{\ignorespaces Performance of regularised logistic-regression models}}{13}}
\newlabel{perf-logreg}{{3}{13}}
\newlabel{par:models}{{4.3.1}{13}}
\@writefile{toc}{\contentsline {paragraph}{Models}{13}}
\newlabel{par:results}{{4.3.1}{13}}
\@writefile{toc}{\contentsline {paragraph}{Results}{13}}
\citation{dunbar_geometric_2016}
\@writefile{lot}{\contentsline {table}{\numberline {4}{\ignorespaces Performance of the non-linear classifier}}{14}}
\newlabel{perf-nonlinear}{{4}{14}}
\bibdata{biblio}
\bibcite{tensorflow2015-whitepaper}{{1}{2015}{{Abadi et~al.}}{{Abadi, Agarwal, Barham, Brevdo, Chen, Citro, Corrado, Davis, Dean, Devin, Ghemawat, Goodfellow, Harp, Irving, Isard, Jia, Jozefowicz, Kaiser, Kudlur, Levenberg, Man\'{e}, Monga, Moore, Murray, Olah, Schuster, Shlens, Steiner, Sutskever, Talwar, Tucker, Vanhoucke, Vasudevan, Vi\'{e}gas, Vinyals, Warden, Wattenberg, Wicke, Yu \& Zheng}}}
\@writefile{toc}{\contentsline {section}{\numberline {5}Conclusion}{15}}
\newlabel{sec:conclusion}{{5}{15}}
\bibcite{Atkinson2011}{{2}{2011}{{Atkinson}}{{}}}
\bibcite{bashir_contact_2016}{{3}{2016}{{Bashir}}{{}}}
\bibcite{benjamini1995controlling}{{4}{1995}{{Benjamini \& Hochberg}}{{}}}
\bibcite{Bickel2013}{{5}{2013}{{Bickel}}{{}}}
\bibcite{bickel_oceania_2006}{{6}{2006}{{Bickel \& Nichols}}{{}}}
\bibcite{blevins_new_2006}{{7}{2006}{{Blevins}}{{}}}
\bibcite{campbell_areal_2006}{{8}{2006}{{Campbell}}{{}}}
\bibcite{campbell_why_2017}{{9}{2017}{{Campbell}}{{}}}
\bibcite{Chang2015}{{10}{2015}{{Chang et~al.}}{{Chang, Cathcart, Hall \& Garrett}}}
\bibcite{clements_feature_2003}{{11}{2003}{{Clements}}{{}}}
\bibcite{cotterell_probabilistic_2017}{{12}{2017}{{Cotterell \& Eisner}}{{}}}
\bibcite{daume_iii_non-parametric_2009}{{13}{2009}{{Daum\'{e}~III}}{{}}}
\bibcite{Delaunay1934}{{14}{1934}{{Delaunay}}{{}}}
\bibcite{Donohue2011}{{15}{2011}{{Donohue \& Nichols}}{{}}}
\bibcite{Dryer1989}{{16}{1989}{{Dryer}}{{}}}
\bibcite{wals}{{17}{2013}{{Dryer \& Haspelmath}}{{}}}
\bibcite{dunbar_geometric_2016}{{18}{2016}{{Dunbar \& Dupoux}}{{}}}
\bibcite{Ember2007}{{19}{2007}{{Ember \& Ember}}{{}}}
\bibcite{emeneau_india_1956}{{20}{1956}{{Emeneau}}{{}}}
\bibcite{enfield_areal_2005}{{21}{2005}{{Enfield}}{{}}}
\bibcite{Everett2013}{{22}{2013}{{Everett}}{{}}}
\bibcite{Fortescue1998}{{23}{1998}{{Fortescue}}{{}}}
\bibcite{Fought2004}{{24}{2004}{{Fought et~al.}}{{Fought, Munroe, Fought \& Good}}}
\bibcite{friedman_after_2000}{{25}{2000}{{Friedman}}{{}}}
\bibcite{gordon2016phonological}{{26}{2016}{{Gordon}}{{}}}
\bibcite{guldemann_macro-sudan_2008}{{27}{2008}{{G\"{u}ldemann}}{{}}}
\bibcite{Hay2007}{{28}{2007}{{Hay \& Bauer}}{{}}}
\bibcite{hockett_manual_1955}{{29}{1955}{{Hockett}}{{}}}
\bibcite{Jaeger2011}{{30}{2011}{{Jaeger et~al.}}{{Jaeger, Graff, Croft \& Pontillo}}}
\bibcite{janssen_randomization_2006}{{31}{2006}{{Janssen et~al.}}{{Janssen, Bickel \& Z\'{u}\~{n}iga}}}
\bibcite{kalyan_mapping_2017}{{32}{2017}{{Kalyan \& Donohue}}{{}}}
\bibcite{Ladd2015}{{33}{2015}{{Ladd et~al.}}{{Ladd, Roberts \& Dediu}}}
\bibcite{liljencrants_numerical_1972}{{34}{1972}{{Liljencrants \& Lindblom}}{{}}}
\bibcite{lindblom_maddieson_1988}{{35}{1988}{{Lindblom \& Maddieson}}{{}}}
\bibcite{MaddiesonPrecoda1992}{{36}{1992}{{Maddieson \& Precoda}}{{}}}
\bibcite{maddieson1984patterns}{{37}{1984}{{Maddieson}}{{}}}
\bibcite{Maddieson1991}{{38}{1991}{{Maddieson}}{{}}}
\bibcite{michael_exploring_2014}{{39}{2014}{{Michael et~al.}}{{Michael, Chang \& Stark}}}
\bibcite{saphon}{{40}{2015}{{Michael et~al.}}{{Michael, Stark, Clem \& Chang}}}
\bibcite{mielke_emergence_2008}{{41}{2008}{{Mielke}}{{}}}
\bibcite{Moran2012}{{42}{2012}{{Moran et~al.}}{{Moran, McCloy \& Wright}}}
\bibcite{phoible}{{43}{2014}{{Moran et~al.}}{{Moran, McCloy \& Wright}}}
\bibcite{murawaki_statistical_2018}{{44}{2018}{{Murawaki \& Yamauchi}}{{}}}
\bibcite{Nettle2012}{{45}{2012}{{Nettle}}{{}}}
\bibcite{nichols1992}{{46}{1992}{{Nichols}}{{}}}
\bibcite{eurphon}{{47}{2015}{{Nikolaev et~al.}}{{Nikolaev, Nikulin \& Kukhto}}}
\bibcite{scikit-learn}{{48}{2011}{{Pedregosa et~al.}}{{Pedregosa, Varoquaux, Gramfort, Michel, Thirion, Grisel, Blondel, Prettenhofer, Weiss, Dubourg, Vanderplas, Passos, Cournapeau, Brucher, Perrot \& Duchesnay}}}
\bibcite{potter_permutation_2005}{{49}{2005}{{Potter}}{{}}}
\bibcite{da_silva_comparative_2016}{{50}{2016}{{da~Silva \& Tehrani}}{{}}}
\bibcite{glmnet}{{51}{2011}{{Simon et~al.}}{{Simon, Friedman, Hastie \& Tibshirani}}}
\bibcite{stevens_quantal_1989}{{52}{1989}{{Stevens}}{{}}}
\bibcite{Thomason2000}{{53}{2000}{{Thomason}}{{}}}
\bibcite{Towner2012}{{54}{2012}{{Towner et~al.}}{{Towner, Grote, Venti \& Mulder}}}
\bibcite{trubetzkoy_grundzuge_1939}{{55}{1939}{{Trubetzkoy}}{{}}}
\bibcite{trudgill2011}{{56}{2011}{{Trudgill}}{{}}}
\bibcite{wichmann_genealogical_2017}{{57}{2017}{{Wichmann}}{{}}}
\bibcite{Wichmann2011}{{58}{2011}{{Wichmann et~al.}}{{Wichmann, Rama \& Holman}}}
\bibcite{WichmannHolman2009}{{59}{2009}{{Wichmann \& Holman}}{{}}}
\bibcite{yamauchi2016}{{60}{2016}{{Yamauchi \& Murawaki}}{{}}}
\bibstyle{unified.bst}
