PWD /Users/macbook/Documents/Yandex.Disk/My papers/PHOIBLE_analysis/neighbour-pressure/docs/revision
INPUT /usr/local/texlive/2017/texmf.cnf
INPUT /usr/local/texlive/2017/texmf-dist/web2c/texmf.cnf
INPUT /usr/local/texlive/2017/texmf-var/web2c/pdftex/pdflatex.fmt
INPUT Nikolaev_revised_paper.tex
OUTPUT Nikolaev_revised_paper.log
INPUT /usr/local/texlive/2017/texmf-dist/tex/latex/base/article.cls
INPUT /usr/local/texlive/2017/texmf-dist/tex/latex/base/article.cls
INPUT /usr/local/texlive/2017/texmf-dist/tex/latex/base/size10.clo
INPUT /usr/local/texlive/2017/texmf-dist/tex/latex/base/size10.clo
INPUT /usr/local/texlive/2017/texmf-dist/tex/latex/natbib/natbib.sty
INPUT /usr/local/texlive/2017/texmf-dist/tex/latex/natbib/natbib.sty
INPUT /usr/local/texlive/2017/texmf-dist/tex/latex/amsmath/amsmath.sty
INPUT /usr/local/texlive/2017/texmf-dist/tex/latex/amsmath/amsmath.sty
INPUT /usr/local/texlive/2017/texmf-dist/tex/latex/amsmath/amstext.sty
INPUT /usr/local/texlive/2017/texmf-dist/tex/latex/amsmath/amstext.sty
INPUT /usr/local/texlive/2017/texmf-dist/tex/latex/amsmath/amsgen.sty
INPUT /usr/local/texlive/2017/texmf-dist/tex/latex/amsmath/amsgen.sty
INPUT /usr/local/texlive/2017/texmf-dist/tex/latex/amsmath/amsbsy.sty
INPUT /usr/local/texlive/2017/texmf-dist/tex/latex/amsmath/amsbsy.sty
INPUT /usr/local/texlive/2017/texmf-dist/tex/latex/amsmath/amsopn.sty
INPUT /usr/local/texlive/2017/texmf-dist/tex/latex/amsmath/amsopn.sty
INPUT /usr/local/texlive/2017/texmf-dist/tex/latex/graphics/graphicx.sty
INPUT /usr/local/texlive/2017/texmf-dist/tex/latex/graphics/graphicx.sty
INPUT /usr/local/texlive/2017/texmf-dist/tex/latex/graphics/keyval.sty
INPUT /usr/local/texlive/2017/texmf-dist/tex/latex/graphics/keyval.sty
INPUT /usr/local/texlive/2017/texmf-dist/tex/latex/graphics/graphics.sty
INPUT /usr/local/texlive/2017/texmf-dist/tex/latex/graphics/graphics.sty
INPUT /usr/local/texlive/2017/texmf-dist/tex/latex/graphics/trig.sty
INPUT /usr/local/texlive/2017/texmf-dist/tex/latex/graphics/trig.sty
INPUT /usr/local/texlive/2017/texmf-dist/tex/latex/graphics-cfg/graphics.cfg
INPUT /usr/local/texlive/2017/texmf-dist/tex/latex/graphics-cfg/graphics.cfg
INPUT /usr/local/texlive/2017/texmf-dist/tex/latex/graphics-def/pdftex.def
INPUT /usr/local/texlive/2017/texmf-dist/tex/latex/graphics-def/pdftex.def
INPUT /usr/local/texlive/2017/texmf-dist/tex/generic/oberdiek/infwarerr.sty
INPUT /usr/local/texlive/2017/texmf-dist/tex/generic/oberdiek/infwarerr.sty
INPUT /usr/local/texlive/2017/texmf-dist/tex/generic/oberdiek/ltxcmds.sty
INPUT /usr/local/texlive/2017/texmf-dist/tex/generic/oberdiek/ltxcmds.sty
INPUT /usr/local/texlive/2017/texmf-dist/tex/latex/listings/listings.sty
INPUT /usr/local/texlive/2017/texmf-dist/tex/latex/listings/listings.sty
INPUT /usr/local/texlive/2017/texmf-dist/tex/latex/listings/lstmisc.sty
INPUT /usr/local/texlive/2017/texmf-dist/tex/latex/listings/lstmisc.sty
INPUT /usr/local/texlive/2017/texmf-dist/tex/latex/listings/listings.cfg
INPUT /usr/local/texlive/2017/texmf-dist/tex/latex/listings/listings.cfg
INPUT /usr/local/texlive/2017/texmf-dist/tex/latex/tipa/tipa.sty
INPUT /usr/local/texlive/2017/texmf-dist/tex/latex/tipa/tipa.sty
INPUT /usr/local/texlive/2017/texmf-dist/tex/latex/base/fontenc.sty
INPUT /usr/local/texlive/2017/texmf-dist/tex/latex/base/fontenc.sty
INPUT /usr/local/texlive/2017/texmf-dist/tex/latex/tipa/t3enc.def
INPUT /usr/local/texlive/2017/texmf-dist/tex/latex/tipa/t3enc.def
INPUT /usr/local/texlive/2017/texmf-dist/fonts/map/fontname/texfonts.map
INPUT /usr/local/texlive/2017/texmf-dist/fonts/tfm/public/cm/cmsl10.tfm
INPUT /usr/local/texlive/2017/texmf-dist/fonts/tfm/public/cm/cmti10.tfm
INPUT /usr/local/texlive/2017/texmf-dist/fonts/tfm/public/cm/cmbx10.tfm
INPUT /usr/local/texlive/2017/texmf-dist/fonts/tfm/public/cm/cmss10.tfm
INPUT /usr/local/texlive/2017/texmf-dist/tex/latex/base/ot1enc.def
INPUT /usr/local/texlive/2017/texmf-dist/tex/latex/base/ot1enc.def
INPUT /usr/local/texlive/2017/texmf-dist/tex/latex/booktabs/booktabs.sty
INPUT /usr/local/texlive/2017/texmf-dist/tex/latex/booktabs/booktabs.sty
INPUT Nikolaev_revised_paper.aux
INPUT Nikolaev_revised_paper.aux
OUTPUT Nikolaev_revised_paper.aux
INPUT /usr/local/texlive/2017/texmf-dist/tex/latex/tipa/t3cmr.fd
INPUT /usr/local/texlive/2017/texmf-dist/tex/latex/tipa/t3cmr.fd
INPUT /usr/local/texlive/2017/texmf-dist/tex/context/base/mkii/supp-pdf.mkii
INPUT /usr/local/texlive/2017/texmf-dist/tex/context/base/mkii/supp-pdf.mkii
INPUT /usr/local/texlive/2017/texmf-dist/tex/generic/oberdiek/pdftexcmds.sty
INPUT /usr/local/texlive/2017/texmf-dist/tex/generic/oberdiek/pdftexcmds.sty
INPUT /usr/local/texlive/2017/texmf-dist/tex/generic/oberdiek/ifluatex.sty
INPUT /usr/local/texlive/2017/texmf-dist/tex/generic/oberdiek/ifluatex.sty
INPUT /usr/local/texlive/2017/texmf-dist/tex/generic/oberdiek/ifpdf.sty
INPUT /usr/local/texlive/2017/texmf-dist/tex/generic/oberdiek/ifpdf.sty
INPUT /usr/local/texlive/2017/texmf-dist/tex/latex/oberdiek/epstopdf-base.sty
INPUT /usr/local/texlive/2017/texmf-dist/tex/latex/oberdiek/epstopdf-base.sty
INPUT /usr/local/texlive/2017/texmf-dist/tex/latex/oberdiek/grfext.sty
INPUT /usr/local/texlive/2017/texmf-dist/tex/latex/oberdiek/grfext.sty
INPUT /usr/local/texlive/2017/texmf-dist/tex/generic/oberdiek/kvdefinekeys.sty
INPUT /usr/local/texlive/2017/texmf-dist/tex/generic/oberdiek/kvdefinekeys.sty
INPUT /usr/local/texlive/2017/texmf-dist/tex/latex/oberdiek/kvoptions.sty
INPUT /usr/local/texlive/2017/texmf-dist/tex/latex/oberdiek/kvoptions.sty
INPUT /usr/local/texlive/2017/texmf-dist/tex/generic/oberdiek/kvsetkeys.sty
INPUT /usr/local/texlive/2017/texmf-dist/tex/generic/oberdiek/kvsetkeys.sty
INPUT /usr/local/texlive/2017/texmf-dist/tex/generic/oberdiek/etexcmds.sty
INPUT /usr/local/texlive/2017/texmf-dist/tex/generic/oberdiek/etexcmds.sty
INPUT /usr/local/texlive/2017/texmf-dist/tex/latex/latexconfig/epstopdf-sys.cfg
INPUT /usr/local/texlive/2017/texmf-dist/tex/latex/latexconfig/epstopdf-sys.cfg
INPUT /usr/local/texlive/2017/texmf-dist/fonts/tfm/public/cm/cmr17.tfm
INPUT /usr/local/texlive/2017/texmf-dist/fonts/tfm/public/cm/cmr12.tfm
INPUT /usr/local/texlive/2017/texmf-dist/fonts/tfm/public/cm/cmr8.tfm
INPUT /usr/local/texlive/2017/texmf-dist/fonts/tfm/public/cm/cmr6.tfm
INPUT /usr/local/texlive/2017/texmf-dist/fonts/tfm/public/cm/cmmi12.tfm
INPUT /usr/local/texlive/2017/texmf-dist/fonts/tfm/public/cm/cmmi8.tfm
INPUT /usr/local/texlive/2017/texmf-dist/fonts/tfm/public/cm/cmmi6.tfm
INPUT /usr/local/texlive/2017/texmf-dist/fonts/tfm/public/cm/cmsy10.tfm
INPUT /usr/local/texlive/2017/texmf-dist/fonts/tfm/public/cm/cmsy8.tfm
INPUT /usr/local/texlive/2017/texmf-dist/fonts/tfm/public/cm/cmsy6.tfm
INPUT /usr/local/texlive/2017/texmf-dist/fonts/tfm/public/cm/cmex10.tfm
INPUT /usr/local/texlive/2017/texmf-dist/fonts/tfm/public/amsfonts/cmextra/cmex8.tfm
INPUT /usr/local/texlive/2017/texmf-dist/fonts/tfm/public/amsfonts/cmextra/cmex7.tfm
INPUT /usr/local/texlive/2017/texmf-dist/fonts/tfm/public/cm/cmr9.tfm
INPUT /usr/local/texlive/2017/texmf-dist/fonts/tfm/public/cm/cmbx9.tfm
INPUT /usr/local/texlive/2017/texmf-dist/fonts/tfm/public/cm/cmr12.tfm
INPUT /usr/local/texlive/2017/texmf-dist/fonts/tfm/public/cm/cmbx12.tfm
OUTPUT Nikolaev_revised_paper.pdf
INPUT /usr/local/texlive/2017/texmf-var/fonts/map/pdftex/updmap/pdftex.map
INPUT /usr/local/texlive/2017/texmf-dist/fonts/tfm/public/amsfonts/cmextra/cmex7.tfm
INPUT /usr/local/texlive/2017/texmf-dist/fonts/tfm/public/amsfonts/cmextra/cmex7.tfm
INPUT /usr/local/texlive/2017/texmf-dist/tex/latex/base/omscmr.fd
INPUT /usr/local/texlive/2017/texmf-dist/tex/latex/base/omscmr.fd
INPUT /usr/local/texlive/2017/texmf-dist/fonts/tfm/public/cm/cmbx12.tfm
INPUT /usr/local/texlive/2017/texmf-dist/fonts/tfm/public/tipa/tipa10.tfm
INPUT images/neigh-graph.png
INPUT ./images/neigh-graph.png
INPUT ./images/neigh-graph.png
INPUT images/boxplots.pdf
INPUT ./images/boxplots.pdf
INPUT ./images/boxplots.pdf
INPUT /usr/local/texlive/2017/texmf-dist/fonts/tfm/public/tipa/tipa8.tfm
INPUT images/top-6-cropped.pdf
INPUT ./images/top-6-cropped.pdf
INPUT ./images/top-6-cropped.pdf
INPUT images/top-7-12-cropped.pdf
INPUT ./images/top-7-12-cropped.pdf
INPUT ./images/top-7-12-cropped.pdf
INPUT images/tail-6-cropped.pdf
INPUT ./images/tail-6-cropped.pdf
INPUT ./images/tail-6-cropped.pdf
INPUT /usr/local/texlive/2017/texmf-dist/fonts/tfm/public/cm/cmtt10.tfm
INPUT Nikolaev_revised_paper.bbl
INPUT Nikolaev_revised_paper.bbl
INPUT Nikolaev_revised_paper.aux
INPUT /usr/local/texlive/2017/texmf-dist/fonts/type1/public/amsfonts/cm/cmbx10.pfb
INPUT /usr/local/texlive/2017/texmf-dist/fonts/type1/public/amsfonts/cm/cmbx12.pfb
INPUT /usr/local/texlive/2017/texmf-dist/fonts/type1/public/amsfonts/cm/cmbx9.pfb
INPUT /usr/local/texlive/2017/texmf-dist/fonts/type1/public/amsfonts/cm/cmex10.pfb
INPUT /usr/local/texlive/2017/texmf-dist/fonts/type1/public/amsfonts/cm/cmmi10.pfb
INPUT /usr/local/texlive/2017/texmf-dist/fonts/type1/public/amsfonts/cm/cmmi5.pfb
INPUT /usr/local/texlive/2017/texmf-dist/fonts/type1/public/amsfonts/cm/cmmi7.pfb
INPUT /usr/local/texlive/2017/texmf-dist/fonts/type1/public/amsfonts/cm/cmr10.pfb
INPUT /usr/local/texlive/2017/texmf-dist/fonts/type1/public/amsfonts/cm/cmr17.pfb
INPUT /usr/local/texlive/2017/texmf-dist/fonts/type1/public/amsfonts/cm/cmr5.pfb
INPUT /usr/local/texlive/2017/texmf-dist/fonts/type1/public/amsfonts/cm/cmr6.pfb
INPUT /usr/local/texlive/2017/texmf-dist/fonts/type1/public/amsfonts/cm/cmr7.pfb
INPUT /usr/local/texlive/2017/texmf-dist/fonts/type1/public/amsfonts/cm/cmr8.pfb
INPUT /usr/local/texlive/2017/texmf-dist/fonts/type1/public/amsfonts/cm/cmr9.pfb
INPUT /usr/local/texlive/2017/texmf-dist/fonts/type1/public/amsfonts/cm/cmsy10.pfb
INPUT /usr/local/texlive/2017/texmf-dist/fonts/type1/public/amsfonts/cm/cmsy7.pfb
INPUT /usr/local/texlive/2017/texmf-dist/fonts/type1/public/amsfonts/cm/cmti10.pfb
INPUT /usr/local/texlive/2017/texmf-dist/fonts/type1/public/amsfonts/cm/cmtt10.pfb
INPUT /usr/local/texlive/2017/texmf-dist/fonts/type1/public/tipa/tipa10.pfb
INPUT /usr/local/texlive/2017/texmf-dist/fonts/type1/public/tipa/tipa8.pfb
