\relax 
\citation{trubetzkoy_grundzuge_1939}
\citation{hockett_manual_1955}
\citation{clements_feature_2003,mielke_emergence_2008}
\citation{dunbar_geometric_2016}
\citation{liljencrants_numerical_1972,stevens_quantal_1989,cotterell_probabilistic_2017}
\citation{maddieson1984patterns}
\citation{gordon2016phonological}
\citation{Atkinson2011}
\citation{Jaeger2011}
\citation{Fought2004,Ember2007}
\citation{Hay2007,trudgill2011,Atkinson2011,Wichmann2011,Nettle2012}
\citation{Donohue2011,Moran2012}
\citation{Everett2013}
\citation{Ladd2015}
\@writefile{toc}{\contentsline {section}{\numberline {1}Introduction}{1}}
\newlabel{sec:introduction}{{1}{1}}
\citation{Maddieson1991}
\citation{Chang2015,wichmann_genealogical_2017}
\citation{Bickel2013}
\citation{Ladd2015}
\citation{nichols1992,Thomason2000}
\citation{enfield_areal_2005}
\citation{guldemann_macro-sudan_2008}
\citation{emeneau_india_1956}
\citation{friedman_after_2000}
\citation{michael_exploring_2014}
\citation{campbell_areal_2006}
\citation{campbell_areal_2006}
\citation{campbell_why_2017}
\citation{Dryer1989}
\citation{bickel_oceania_2006}
\citation{Fortescue1998}
\citation{daume_iii_non-parametric_2009}
\citation{WichmannHolman2009}
\citation{wals}
\citation{maddieson1984patterns,MaddiesonPrecoda1992}
\citation{phoible}
\citation{saphon}
\citation{eurphon}
\citation{Towner2012,yamauchi2016}
\@writefile{toc}{\contentsline {section}{\numberline {2}Data and the neighbour graph}{4}}
\newlabel{sec:data_and_the_neighbour_graph}{{2}{4}}
\@writefile{toc}{\contentsline {subsection}{\numberline {2.1}Data}{4}}
\newlabel{sub:data}{{2.1}{4}}
\@writefile{toc}{\contentsline {subsubsection}{\numberline {2.1.1}The neighbour graph}{4}}
\newlabel{ssub:the_neighbour_graph}{{2.1.1}{4}}
\citation{Delaunay1934}
\@writefile{lof}{\contentsline {figure}{\numberline {1}{\ignorespaces Neighbour graph of the languages of Eurasia used for this study}}{5}}
\newlabel{fig:graph}{{1}{5}}
\@writefile{toc}{\contentsline {section}{\numberline {3}Pairwise distances between inventories}{6}}
\newlabel{sec:pairwise_distances_between_inventories}{{3}{6}}
\citation{lindblom_maddieson_1988}
\@writefile{lof}{\contentsline {figure}{\numberline {2}{\ignorespaces Boxplots of Jaccard (top) and CRCJ (bottom) distances between language pairs in different groups}}{7}}
\newlabel{fig:boxplots}{{2}{7}}
\citation{Jaeger2011}
\citation{WichmannHolman2009,kalyan_mapping_2017}
\@writefile{toc}{\contentsline {section}{\numberline {4}Predicting phonological distributions}{8}}
\newlabel{sec:predicting_phonological_distributions}{{4}{8}}
\@writefile{toc}{\contentsline {subsection}{\numberline {4.1}Neighbour-Pressure Metric}{8}}
\newlabel{sub:neighbour_pressure_metric}{{4.1}{8}}
\citation{Jaeger2011}
\citation{Jaeger2011}
\citation{Jaeger2011}
\newlabel{npm}{{3}{9}}
\@writefile{toc}{\contentsline {subsection}{\numberline {4.2}Modelling consonant distributions with areal data using logistic regression}{9}}
\newlabel{sub:modeling_consonant_distributions_with_areal_data}{{4.2}{9}}
\citation{eisen_typology_2017}
\@writefile{lof}{\contentsline {figure}{\numberline {3}{\ignorespaces Top\nobreakspace  {}6 segments whose distribution is most dependent on areal pressure}}{11}}
\newlabel{fig:top-6}{{3}{11}}
\@writefile{lof}{\contentsline {figure}{\numberline {4}{\ignorespaces Segments whose distribution is most dependent on areal pressure, poss.\nobreakspace  {}7--12}}{12}}
\newlabel{fig:top-7-12}{{4}{12}}
\@writefile{lof}{\contentsline {figure}{\numberline {5}{\ignorespaces Segments whose distribution is restricted by phylogenetics}}{13}}
\newlabel{fig:tail-6}{{5}{13}}
\citation{glmnet}
\citation{scikit-learn}
\citation{tensorflow2015-whitepaper}
\@writefile{toc}{\contentsline {subsection}{\numberline {4.3}Non-linear models}{14}}
\newlabel{sub:non_linear_models}{{4.3}{14}}
\@writefile{toc}{\contentsline {subsubsection}{\numberline {4.3.1}Data and models}{14}}
\newlabel{ssub:data_and_models}{{4.3.1}{14}}
\newlabel{par:data}{{4.3.1}{14}}
\@writefile{toc}{\contentsline {paragraph}{Data}{14}}
\newlabel{par:models}{{4.3.1}{14}}
\@writefile{toc}{\contentsline {paragraph}{Models}{14}}
\citation{dunbar_geometric_2016}
\@writefile{lot}{\contentsline {table}{\numberline {1}{\ignorespaces Performance of regularised logistic-regression models}}{15}}
\newlabel{perf-logreg}{{1}{15}}
\newlabel{par:results}{{4.3.1}{15}}
\@writefile{toc}{\contentsline {paragraph}{Results}{15}}
\@writefile{lot}{\contentsline {table}{\numberline {2}{\ignorespaces Performance of non-linear classifiers}}{16}}
\newlabel{perf-nonlinear}{{2}{16}}
\@writefile{toc}{\contentsline {section}{\numberline {5}Conclusion}{16}}
\newlabel{sec:conclusion}{{5}{16}}
\bibdata{biblio}
\bibcite{tensorflow2015-whitepaper}{{1}{2015}{{Abadi et~al.}}{{Abadi, Agarwal, Barham, Brevdo, Chen, Citro, Corrado, Davis, Dean, Devin, Ghemawat, Goodfellow, Harp, Irving, Isard, Jia, Jozefowicz, Kaiser, Kudlur, Levenberg, Man\'{e}, Monga, Moore, Murray, Olah, Schuster, Shlens, Steiner, Sutskever, Talwar, Tucker, Vanhoucke, Vasudevan, Vi\'{e}gas, Vinyals, Warden, Wattenberg, Wicke, Yu \& Zheng}}}
\bibcite{Atkinson2011}{{2}{2011}{{Atkinson}}{{}}}
\bibcite{Bickel2013}{{3}{2013}{{Bickel}}{{}}}
\bibcite{bickel_oceania_2006}{{4}{2006}{{Bickel \& Nichols}}{{}}}
\bibcite{campbell_areal_2006}{{5}{2006}{{Campbell}}{{}}}
\bibcite{campbell_why_2017}{{6}{2017}{{Campbell}}{{}}}
\bibcite{Chang2015}{{7}{2015}{{Chang et~al.}}{{Chang, Cathcart, Hall \& Garrett}}}
\bibcite{clements_feature_2003}{{8}{2003}{{Clements}}{{}}}
\bibcite{cotterell_probabilistic_2017}{{9}{2017}{{Cotterell \& Eisner}}{{}}}
\bibcite{daume_iii_non-parametric_2009}{{10}{2009}{{Daum\'{e}~III}}{{}}}
\bibcite{Delaunay1934}{{11}{1934}{{Delaunay}}{{}}}
\bibcite{Donohue2011}{{12}{2011}{{Donohue \& Nichols}}{{}}}
\bibcite{Dryer1989}{{13}{1989}{{Dryer}}{{}}}
\bibcite{wals}{{14}{2013}{{Dryer \& Haspelmath}}{{}}}
\bibcite{dunbar_geometric_2016}{{15}{2016}{{Dunbar \& Dupoux}}{{}}}
\bibcite{eisen_typology_2017}{{16}{2017}{{Eisen}}{{}}}
\bibcite{Ember2007}{{17}{2007}{{Ember \& Ember}}{{}}}
\bibcite{emeneau_india_1956}{{18}{1956}{{Emeneau}}{{}}}
\bibcite{enfield_areal_2005}{{19}{2005}{{Enfield}}{{}}}
\bibcite{Everett2013}{{20}{2013}{{Everett}}{{}}}
\bibcite{Fortescue1998}{{21}{1998}{{Fortescue}}{{}}}
\bibcite{Fought2004}{{22}{2004}{{Fought et~al.}}{{Fought, Munroe, Fought \& Good}}}
\bibcite{friedman_after_2000}{{23}{2000}{{Friedman}}{{}}}
\bibcite{gordon2016phonological}{{24}{2016}{{Gordon}}{{}}}
\bibcite{guldemann_macro-sudan_2008}{{25}{2008}{{G\"{u}ldemann}}{{}}}
\bibcite{Hay2007}{{26}{2007}{{Hay \& Bauer}}{{}}}
\bibcite{hockett_manual_1955}{{27}{1955}{{Hockett}}{{}}}
\bibcite{Jaeger2011}{{28}{2011}{{Jaeger et~al.}}{{Jaeger, Graff, Croft \& Pontillo}}}
\bibcite{kalyan_mapping_2017}{{29}{2017}{{Kalyan \& Donohue}}{{}}}
\bibcite{Ladd2015}{{30}{2015}{{Ladd et~al.}}{{Ladd, Roberts \& Dediu}}}
\bibcite{liljencrants_numerical_1972}{{31}{1972}{{Liljencrants \& Lindblom}}{{}}}
\bibcite{lindblom_maddieson_1988}{{32}{1988}{{Lindblom \& Maddieson}}{{}}}
\bibcite{MaddiesonPrecoda1992}{{33}{1992}{{Maddieson \& Precoda}}{{}}}
\bibcite{maddieson1984patterns}{{34}{1984}{{Maddieson}}{{}}}
\bibcite{Maddieson1991}{{35}{1991}{{Maddieson}}{{}}}
\bibcite{michael_exploring_2014}{{36}{2014}{{Michael et~al.}}{{Michael, Chang \& Stark}}}
\bibcite{saphon}{{37}{2015}{{Michael et~al.}}{{Michael, Stark, Clem \& Chang}}}
\bibcite{mielke_emergence_2008}{{38}{2008}{{Mielke}}{{}}}
\bibcite{Moran2012}{{39}{2012}{{Moran et~al.}}{{Moran, McCloy \& Wright}}}
\bibcite{phoible}{{40}{2014}{{Moran et~al.}}{{Moran, McCloy \& Wright}}}
\bibcite{Nettle2012}{{41}{2012}{{Nettle}}{{}}}
\bibcite{nichols1992}{{42}{1992}{{Nichols}}{{}}}
\bibcite{eurphon}{{43}{2015}{{Nikolaev et~al.}}{{Nikolaev, Nikulin \& Kukhto}}}
\bibcite{scikit-learn}{{44}{2011}{{Pedregosa et~al.}}{{Pedregosa, Varoquaux, Gramfort, Michel, Thirion, Grisel, Blondel, Prettenhofer, Weiss, Dubourg, Vanderplas, Passos, Cournapeau, Brucher, Perrot \& Duchesnay}}}
\bibcite{glmnet}{{45}{2011}{{Simon et~al.}}{{Simon, Friedman, Hastie \& Tibshirani}}}
\bibcite{stevens_quantal_1989}{{46}{1989}{{Stevens}}{{}}}
\bibcite{Thomason2000}{{47}{2000}{{Thomason}}{{}}}
\bibcite{Towner2012}{{48}{2012}{{Towner et~al.}}{{Towner, Grote, Venti \& Mulder}}}
\bibcite{trubetzkoy_grundzuge_1939}{{49}{1939}{{Trubetzkoy}}{{}}}
\bibcite{trudgill2011}{{50}{2011}{{Trudgill}}{{}}}
\bibcite{wichmann_genealogical_2017}{{51}{2017}{{Wichmann}}{{}}}
\bibcite{Wichmann2011}{{52}{2011}{{Wichmann et~al.}}{{Wichmann, Rama \& Holman}}}
\bibcite{WichmannHolman2009}{{53}{2009}{{Wichmann \& Holman}}{{}}}
\bibcite{yamauchi2016}{{54}{2016}{{Yamauchi \& Murawaki}}{{}}}
\bibstyle{unified.bst}
