This is BibTeX, Version 0.99d (TeX Live 2017)
Capacity: max_strings=100000, hash_size=100000, hash_prime=85009
The top-level auxiliary file: Nikolaev_revised_paper.aux
The style file: unified.bst.bst
Database file #1: biblio.bib
Reallocated wiz_functions (elt_size=4) to 6000 items from 3000.
Warning--empty note in eisen_typology_2017
Warning--empty booktitle in kalyan_mapping_2017
Warning--empty publisher in eurphon
Warning--missing publisher in trubetzkoy_grundzuge_1939
Warning--missing publisher in wichmann_genealogical_2017
You've used 54 entries,
            3166 wiz_defined-function locations,
            980 strings with 14681 characters,
and the built_in function-call counts, 33815 in all, are:
= -- 2679
> -- 1519
< -- 40
+ -- 529
- -- 467
* -- 2296
:= -- 5286
add.period$ -- 249
call.type$ -- 54
change.case$ -- 448
chr.to.int$ -- 54
cite$ -- 59
duplicate$ -- 2686
empty$ -- 2585
format.name$ -- 605
if$ -- 6767
int.to.chr$ -- 1
int.to.str$ -- 1
missing$ -- 563
newline$ -- 306
num.names$ -- 232
pop$ -- 1117
preamble$ -- 1
purify$ -- 367
quote$ -- 0
skip$ -- 851
stack$ -- 0
substring$ -- 1331
swap$ -- 1285
text.length$ -- 0
text.prefix$ -- 0
top$ -- 0
type$ -- 444
warning$ -- 5
while$ -- 233
width$ -- 0
write$ -- 755
(There were 5 warnings)
