LangName,Latitude,Longitude,Phylum,Genus
Ksingmul,20.9828912,104.181469,Mon-Khmer,Khmuic
Neo-aramaic,38.0,47.0,Semitic,Semitic
Munji,35.5945317,70.6146942,Indo-European,Iranic
Upper Saxon (Chemnitz),50.827845,12.921369,Indo-European,Germanic
Italian,41.9100711,12.5359979,Indo-European,Romance
Eastern Yugur,38.7939,99.57835,Mongolic,Qinghai-Gansu
Toda,11.25,76.45,Dravidian,Southern Dravidian
Blang; Plang; Bulang; Pulang; Pula; Kawa; K'ala; Kontoi,21.57,100.24,Mon-Khmer,Palaung-Khmuic
English (RP),51.5286416,-0.1015987,Indo-European,Germanic
Wazirwola (North Wazīrī),33,70,Indo-European,Iranic
Varli (Dogri),20.067425,73.175835,Indo-European,Indo-Aryan
Ahi,24.372092,103.705807,Sino-Tibetan,Lolo-Burmese
Sakha (Standard),62,130,Turkic,Siberian
Tay Daeng,19.0130593,104.79877,Tai-Kadai,Tai
Nyeu,15.0,104.15,Mon-Khmer,Khmer
gSerpa,31.879,100.722,Sino-Tibetan,Tibetic
Tshangla,27.3385,91.54805,Sino-Tibetan,Tshangla-Takpa
Mishmi,29.0,96.0,Sino-Tibetan,Tani
Svan (Upper Bal),43,42.7,Kartvelian,Svan
Miyako (Ogami),24.9156478,125.307708,Japonic,Ryukyuan
Faroese,62.0151195,-6.7998076,Indo-European,Germanic
Kota,11.3,77.1,Dravidian,Southern Dravidian
Ivatan,20.15,121.55,Austronesian,Northern Philippines
Tod Tibetan,32.783339,77.357524,Sino-Tibetan,Tibetic
Arbëresh Albanian (Hora e Arbëreshëvet),38,13.28,Indo-European,Albanian
Chong,12.15,102.5,Mon-Khmer,Pearic
Lithuanian (West Aukštaitian),54.9,23.9,Indo-European,Baltic
Kalmyk (Standard),46.3,44.3,Mongolic,Oirat-Khalkha
Judaeo-Spanish (Beiruti),33.8886289,35.4954794,Indo-European,Romance
Koya,17.3,81.2,Dravidian,South-Central Dravidian
Tamil,13.0826802,80.2707184,Dravidian,Tamil-Tulu
Abkhaz (Bzyb),43.1,40.6,Northwest Caucasian,Abkhaz-Abaza
Daur,48.5,124.5,Mongolic,Daur
Standard Chinese (Beijing),39.90403,116.4075,Sino-Tibetan,Sinitic
Kashmiri,34.0,76.0,Indo-European,Indic
North Azerbaijani (Shirvan),39.93,48.92,Turkic,Oghuz
Panjabi (Eastern),31.1471305,75.3412179,Indo-European,Indo-Aryan
Kuvi,18.8,82.9,Dravidian,Telugu-Kui
Low German,53.0,10.0,Indo-European,Germanic
Irula,11.38,78.11,Dravidian,Southern Dravidian
Yerava,12.25,75.45,Dravidian,Southern Dravidian
Nyinpa Cone,34.45727,103.08387,Sino-Tibetan,Tibetic
Rutul,41.4,47.15,Nakh-Daghestanian,Lezgic
Polish (Standard),52.2,21,Indo-European,Slavic
Northern Altai (Kumandy),52.5,86.5,Turkic,Altai
Achang (Lianghe),24.641101,98.271662,Sino-Tibetan,Lolo-Burmese
Dongxiang,35.55043,103.18082,Mongolic,Qinghai-Gansu
Mongolian (Khalkha),48,107,Mongolic,Oirat-Khalkha
Serbian (Standard Ekavian),44.8,20.5,Indo-European,Slavic
Võro,57.8460723,26.9986977,Uralic,Finnic
Naiki,19.4,78.32,Dravidian,Central Dravidian
Dafla,27.3,93.3,Sino-Tibetan,Tani
Drokpa Tibetan (Zhongba),29.77,84.031389,Sino-Tibetan,Tibetic
Burmese (Rangoon),16.780833,96.149722,Sino-Tibetan,Lolo-Burmese
Ho (Mayurbhanj),22.0086978,86.41873,Mon-Khmer,Munda
Karakalpak,42.461891,59.616631,Turkic,Qypchaq
Dolgan,69.5,87.5,Turkic,Siberian
Tagalog,14.6,121,Austronesian,Philippine
Humla Bhotia,30.307,81.649,Sino-Tibetan,Tibetic
Manchu,49.3,127.3,Tungusic,Tungusic
Lao (Vientiane),17.966667,102.6,Tai-Kadai,Tai
Sedik,24.0,121.3,Austronesian,Atayalic
Nuosu (Black Yi),27.894,102.264,Sino-Tibetan,Lolo-Burmese
Naxi,27.3,100.0,Sino-Tibetan,Naxi
Mien,20.5,101.1,Hmong-Mien,Hmong-Mien
Lhasa Tibetan,29.65,91.116667,Sino-Tibetan,Tibetic
Scottish Gaelic (Lewis),58.2185289,-6.4392309,Indo-European,Celtic
Lak (Kumux),42.17,47.12,Nakh-Daghestanian,Lak
Korku,21.3498094,77.49529,Mon-Khmer,Munda
Eastern Khanty (Vakh),61,77,Uralic,Ugric
Tamang (Eastern),27.652924,85.846514,Sino-Tibetan,TGMT
Ao,26.35,94.4,Sino-Tibetan,Kuki-Chin
Eastern Hill Balochi,29,69,Indo-European,Iranic
Changzhou,31.4,119.55,Sino-Tibetan,Chinese
Lower Sorbian,51.7563108,14.3328679,Indo-European,Slavic
Brao,14.35,106.35,Mon-Khmer,Bahnaric
Wakhi,36.7167,71.7667,Indo-European,Iranic
Kyrgyz (Standard),42.9,74.6,Turkic,Qypchaq
Norwegian,61.11,8.89,Indo-European,Germanic
Kami Tibetan,27.928496,101.280212,Sino-Tibetan,Tibetic
Koryak,62.3,162.0,Chukotko-Kamchatkan,Northern Chukotko-Kamchatkan
Hill Mari (Kozmodemjansk),56.3,46.6,Uralic,Mari
So,17.25,103.2,Mon-Khmer,Khmer
Paite,24.0,93.1,Sino-Tibetan,Kuki-Chin
Lushai,23.1,92.5,Sino-Tibetan,Kuki-Chin
Bodo,26.5,92.0,Sino-Tibetan,Bodo-Garo
Gojri; Gujari; Gujar,32.45,76.15,Indo-European,Indic
Vallader Romansh,46.8,10.3,Indo-European,Romance
Halbi,21.0,81.0,Indo-European,Indic
Norwegian (Standard Østnorsk),59.8938549,10.7851165,Indo-European,Germanic
Tsez (Asax),42.15053,46.033318,Nakh-Daghestanian,Tsezic
Assamese (Standard),26.1445169,91.7362365,Indo-European,Indo-Aryan
Bengali (Bangladeshi Standard),23.810332,90.412518,Indo-European,Indo-Aryan
Gadaba,18.834493,82.403434,Dravidian,Kolami-Parji
Lai,22.4,93.4,Sino-Tibetan,Kuki-Chin
Najdi Arabic,24.962309,45.770789,Semitic,Arabic
Andamanese,12.0,92.4,Andamanese,Great Andamanese
Uyghur (Xinjiang),43.8,87.6,Turkic,Qarluk
Khaling,27.498096,86.677595,Sino-Tibetan,Kiranti
Lamani,17.0,77.0,Indo-European,Indic
Khalkhal,38.25,48.3,Indo-European,Iranic
Kumauni,30.0,80.0,Indo-European,Indic
Marathi,19.0,76.0,Indo-European,Indic
Atayal,24.79,121.56,Austronesian,Atayalic
Apatani,27.3,93.45,Sino-Tibetan,Tani
Tiddim Chin,23.2,93.4,Sino-Tibetan,Kuki-Chin
Godoberi,42.6386111,46.0083333,Nakh-Daghestanian,Avar-Andi
Kolami (Wardha),20.745319,78.6021946,Dravidian,Kolami-Parji
Dhangar,26.5,86.0,Dravidian,Northern Dravidian
Kurdish (Sorani),35.5,45.4,Indo-European,Iranic
Juhuri,42.0674251,48.2890907,Indo-European,Iranic
Czech (Bohemian),50,14.5,Indo-European,Slavic
Kanigke:rgotti,9.5,78.0,Indo-European,Indic
Newari,27.4,85.3,Sino-Tibetan,Bodic
Maranao,7.5,124.0,Austronesian,Southern Philippines
Komi-Permyak,59.9,55,Uralic,Permic
Kuay,14.5,103.55,Mon-Khmer,Katuic
Yodzyak Komi,60.05,57.51,Uralic,Permic
Sindhi (Vicholi),25.4,68.4,Indo-European,Indo-Aryan
Purki,34.557323,76.134013,Sino-Tibetan,Tibetic
Kui,19.2,83.59,Dravidian,South-Central Dravidian
Pray,19.15,101.1,Mon-Khmer,Khmer
Chepang,27.4,84.45,Sino-Tibetan,Bodic
Walungge,27.79252,87.835522,Sino-Tibetan,Tibetic
Spiti Tibetan,32.2465,78.03707,Sino-Tibetan,Tibetic
Chokri,25.41,94.17,Sino-Tibetan,Kuki-Chin
Vlax Romani (Mitrovica),42.8913909,20.8659995,Indo-European,Indo-Iranic
Bhujel,27.851953,84.452763,Sino-Tibetan,Chepang-Bhujel
Balti (Kharkoo),35.241096,76.238221,Sino-Tibetan,Tibetic
Maltese (Standard),35.9,14.5,Semitic,Arabic
Uzbek,40.0,66.0,Turkic,Turkic
Turkmen (Teke),38,60.5,Turkic,Oghuz
Central Khmer,13.0286971,102.9896,Mon-Khmer,Khmeric
Gtaʔ,18.3435863,81.8825279,Mon-Khmer,Munda
Udihe (Bikin),46.54,135.36,Tungusic,Northern Tungusic
Nyaw (Uthen),17.556944,104.6125,Tai-Kadai,Tai
Icelandic,64,-22,Indo-European,Germanic
Irish (Gaoth Dobhair),55.0743443,-8.2941873,Indo-European,Celtic
Tripuri,24.2,92.3,Sino-Tibetan,Bodo-Garo
Tajik (Bukhara),39.8,64.5,Indo-European,Iranic
Kunigami (Nakijin),26.6825769,127.972628,Japonic,Ryukyuan
Kon̩ekar Gadaba,16.12,80.5,Dravidian,Central Dravidian
Yue Chinese (Hong Kong Cantonese),22.396428,114.109497,Sino-Tibetan,Sinitic
Konkani,15.15,74.0,Indo-European,Indic
Bundeli,25.57,80.08,Indo-European,Indic
Solu Sherpa (Hile),27.501358,86.730984,Sino-Tibetan,Tibetic
Kam,26.0,108.3,Tai-Kadai,Kam-Tai
Manange,28.667231,84.01877,Sino-Tibetan,TGMT
Yaghnobi,39.2163889,69.0633333,Indo-European,Iranic
Northwestern Pashto,34.4,70.4,Indo-European,Iranic
Sanskrit,20.0,77.0,Indo-European,Indic
Abujmaria,19.79,79.91,Dravidian,South-Central Dravidian
Northern Cuona,29.36377,95.34408,Sino-Tibetan,Tibetic
Tatar (Standard),55.79,49.13,Turkic,Qypchaq
Jèrriais (Eastern Jersey),49.2,-2.05,Indo-European,Romance
Skolt Saami (Suõʹnnʼjel),68.5,29.5,Uralic,Saamic
Dhivehi (Malé),4.1754959,73.509347,Indo-European,Indo-Aryan
Cham,12.0,105.2,Austronesian,Malayic
Latvian (Standard),56.9,24.1,Indo-European,Baltic
Ao-naga,26.35,94.4,Sino-Tibetan,Kuki-Chin
Veps (Šimozero),60.5,35.6,Uralic,Finnic
Ilocano,16.6,120.3,Austronesian,Philippine
Khezha,25.4,94.07,Sino-Tibetan,Kuki-Chin
Urali,11.21,77.44,Dravidian,Southern Dravidian
Karaim (Northwestern),54.6379113,24.9346894,Turkic,Qypchaq
Hayu,27.322848,86.080756,Sino-Tibetan,Kiranti
Votic (Jõgõperä),59.65,28.28,Uralic,Finnic
Yerukala,18.0,79.3,Dravidian,Southern Dravidian
Mazanderani,36.3,52.0,Indo-European,Iranian
Rājbanshi,26.5,87.8,Indo-European,Indo-Aryan
Tangkul Naga,25.0,94.3,Sino-Tibetan,Kuki-Chin
Tay Yo,19.3528917,105.1726816,Tai-Kadai,Tai
Kabardian (Baksan),43.7,43.5,Northwest Caucasian,Circassian
Tiruray,6.5,124.1,Austronesian,South Mindanao
Zaiwa,24.13,98.14,Sino-Tibetan,Burmese-Lolo
Thakali,28.79,83.68,Sino-Tibetan,TGMT
Kham Tibetan,31.47853,99.95257,Sino-Tibetan,Tibetic
Lue (Chieng Hung),21.983,100.817,Tai-Kadai,Tai
Ishkashimi,36.727222,71.611667,Indo-European,Iranic
Oriya,20.9516658,85.0985236,Indo-European,Indo-Aryan
Shan (Hsi Paw),22.6236316,97.3,Tai-Kadai,Tai
Slovak (Standard),49.1,19.6,Indo-European,Slavic
Dzongkha,27.466667,89.641667,Sino-Tibetan,Tibetic
Urdu,25,67,Indo-European,Indo-Aryan
Northern Qiang (Yadu),31.881457,103.367241,Sino-Tibetan,Qiangic
Gujarati (Standard),23,72.5,Indo-European,Indo-Aryan
Kurukh,22.5,85.3,Dravidian,Northern Dravidian
Bengali (Dhaka),23.810332,90.412518,Indo-European,Indo-Aryan
Darma,30.319269,80.730618,Sino-Tibetan,Darma-Byangsi
Dimili,38.61,39.64,Indo-European,Iranian
Turkish (Standard),41,29,Turkic,Oghuz
Luxembourgish,49.8152995,6.13332,Indo-European,Germanic
Khmu?,19.55,101.25,Mon-Khmer,Palaung-Khmuic
Awadhi,27.3,81.3,Indo-European,Indic
Rukai,22.5,120.5,Austronesian,Tsouic
Tulu,12.87,74.88,Dravidian,Tamil-Tulu
Khalkha,47.0,105.0,Mongolic,Mongolic
Lotha,26.3,94.15,Sino-Tibetan,Kuki-Chin
Rawang (Mutwang),27.89462,97.69328,Sino-Tibetan,Nungish
Welsh (Llanwrtyd),52.107586,-3.637427,Indo-European,Celtic
Slavomolisano (Acquaviva Collecroce),41.87,14.75,Indo-European,Slavic
Khasi,25.3,92.0,Mon-Khmer,Khasian
Portuguese (Estremenho),39,-9,Indo-European,Romance
Baima,32.733,104.318,Sino-Tibetan,Tibetic
Sedang,14.5,108.0,Mon-Khmer,Bahnaric
Khalong Tibetan,32.10872,100.98728,Sino-Tibetan,Tibetic
Ingush,43.2,44.8,Nakh-Daghestanian,Nakh
Kota,11.3,77.1,Dravidian,Southern Dravidian
Tagalog,14.0,121.0,Austronesian,Meso-Philippine
Xiamen,24.3,118.1,Sino-Tibetan,Chinese
Erzya (Standard),54.5,46,Uralic,Mordvinic
Southern Pumi (Xinyingpan),27.164195,100.921264,Sino-Tibetan,Qiangic
Jibbali (Central),17,54.8,Semitic,South
Tundra Yukaghir,69.2,154.4,Yukaghir,
Slovene (Standard),46.1,14.5,Indo-European,Slavic
Upper Sorbian,51.2,14.4,Indo-European,Slavic
Gagauz (Standard),46.316667,28.666666,Turkic,Oghuz
Salar,35.8482697,102.485915,Turkic,Oghuz
Garo,25.4,90.3,Sino-Tibetan,Bodo-Garo
Bai,26.17,99.71,Sino-Tibetan,Bai
Nepali,28,84.633333,Indo-European,Indo-Aryan
Parji,19.3,82.3,Dravidian,Central Dravidian
Denjongka,27.311,88.469,Sino-Tibetan,Tibetic
Domari (Palestinian),31.8,35.3,Indo-European,Indo-Aryan
Kasaba,11.38,78.11,Dravidian,Southern Dravidian
Mingrelian (Zugdidi-Samurzaqano),42.5,41.85,Kartvelian,Karto-Zan
dGudzong Tibetan,30.792712,101.933506,Sino-Tibetan,Tibetic
Spanish (Castilian),40.4,-3.7,Indo-European,Romance
Digor Ossetic,43.16,44.16,Indo-European,Iranic
Bikol (bicolano),13.3,123.0,Austronesian,Meso-Philippine
Khakas (Standard),53.7,91.4,Turkic,Yenisei
Shixing,28.278134,100.650617,Sino-Tibetan,
Breton (Bothoa),48.33478,-3.16123,Indo-European,Celtic
Zhongu Tibetan,32.640579,103.597121,Sino-Tibetan,Tibetic
Kangjia,35.93672,101.98152,Mongolic,Qinghai-Gansu
Bashkir (Standard),53,55.6,Turkic,Qypchaq
Magahi,25.611,85.144,Indo-European,Indo-Aryan
Western Balochi (Sarāwānī),27.37,62.33,Indo-European,Iranic
gLo Tibetan,29.19537,83.94885,Sino-Tibetan,Tibetic
Banjara,17.0,77.0,Indo-European,Indic
Taz Selkup,66,85,Uralic,Samoyed
Southern Balochi,25.2,62.3,Indo-European,Iranic
Moken,9.05,97.5,Austronesian,Moklen
Ersu,28.866137,102.625889,Sino-Tibetan,Qiangic
Koraga,12.33,75.05,Dravidian,Southern Dravidian
Yongning Na (Mosuo),27.76122,100.66282,Sino-Tibetan,Naxi
Kattunaika,11.33,76.36,Dravidian,Southern Dravidian
Nanai,49.3,136.5,Tungusic,Tungusic
Waneci,30.1,67.9,Indo-European,Iranic
Gelao,26.15,106.23,Tai-Kadai,Kadai
Mising,28.3,94.5,Sino-Tibetan,Tani
Badaga,11.4,76.45,Dravidian,Southern Dravidian
Bhili,22.0,73.0,Indo-European,Indic
Livonian (Vidzeme),57.7,22.5,Uralic,Finnic
Chrau,10.55,107.15,Mon-Khmer,Bahnaric
German (Standard),52.3796664,9.7614715,Indo-European,Germanic
Galician,43,-8,Indo-European,Romance
Gojri,32.45,76.15,Indo-European,Indic
Kildin Saami,68,35,Uralic,Saamic
Yousafzai Pashto (Peshāwar),34,71.6,Indo-European,Iranic
Juang,21.5151196,85.68458,Mon-Khmer,Munda
Aheu; Thavung,17.25,103.2,Mon-Khmer,Khmer
Gorum,18.5639348,82.7374115,Mon-Khmer,Munda
Themchen Tibetan,37.437613,98.936179,Sino-Tibetan,Tibetic
Gutob (Koraput),18.8645237,82.8775218,Mon-Khmer,Munda
Moghol,35.0,62.0,Mongolic,Mongolic
Tofa,53.64,98.21,Turkic,Sayan
French,48.8588589,2.3470599,Indo-European,Romance
Tausug (Jolo),6,121,Austronesian,Philippine
South Mustang Tibetan (Jharkhot),28.817816,83.849625,Sino-Tibetan,Tibetic
Kashmiri,34.0,76.0,Indo-European,Indic
Sui,25.723088,107.921698,Tai-Kadai,Kam-Sui
Zuberoan Basque,43.22,-0.89,Basque,
Mirandese,41.5,-6.3,Indo-European,Romance
Ainu,43.0,143.0,Isolate,Ainu
Macedonian (Standard),42,21.4,Indo-European,Slavic
Aklan,11.4,122.2,Austronesian,Meso-Philippine
Karata,42.5969703,46.3340785,Nakh-Daghestanian,Avar-Andi
Ormuri,32.3,69.45,Indo-European,Iranian
Labrang Tibetan,35.204,102.52,Sino-Tibetan,Tibetic
Udmurt (Standard),56.8,53.2,Uralic,Permic
Kyirong Tibetan,28.854444,85.296667,Sino-Tibetan,Tibetic
Laz (Arhavi),41.35,41.31,Kartvelian,Karto-Zan
Occitan (Gascon),45,-0.5,Indo-European,Romance
Malto,25,87,Dravidian,Northern
Even (Ola),59.569799,151.26588,Tungusic,Northern Tungusic
Hungarian (Standard),47.5,19,Uralic,Ugric
Myeik Burmese,12.446679,98.611731,Sino-Tibetan,Lolo-Burmese
Saek,17.455271,104.742016,Tai-Kadai,Tai
Danish,55.6712673,12.5608388,Indo-European,Germanic
Paiwan (Kulalao),22.5,120.8,Austronesian,Paiwan
Southern Cuona,27.86977,91.8045,Sino-Tibetan,Tibetic
Tsou,23.3,120.45,Austronesian,Tsouic
Hmong Njua (Green Hmong),19.430668,103.531051,Hmong-Mien,Hmongic
Telugu (Vizianagaram),18.094831,83.406698,Dravidian,Telugu-Kui
Malayalam,8.5074,76.973,Dravidian,Tamil-Tulu
Sre,11.4,108.0,Mon-Khmer,Bahnaric
Dari,34.555349,69.207486,Indo-European,Iranic
Alutor,60.2,165.5,Chukotko-Kamchatkan,Koryak-Alutor
Mundari,23,85.2,Mon-Khmer,Munda
Ket (Kellog),62.5,86.3,Yeniseian,Northern Yeniseian
"Pa-o, Taungthu",12.05,98.56,Sino-Tibetan,Karen
Hiligaynon,10.0,122.55,Austronesian,Meso-Philippine
Pwo Karen,15.1,99.0,Sino-Tibetan,Karen
Santali,23.6101808,85.2799354,Mon-Khmer,Munda
Northern Khanty (Kazym),63.7,67,Uralic,Ugric
Farsi,35.7,51.4,Indo-European,Iranic
Dhimal,26,87.5,Sino-Tibetan,Dhimal-Toto
Kurux,22.5,85.3,Dravidian,Northern Dravidian
Marwari,27.0,75.07,Indo-European,Iranian
Koya,17.3,81.2,Dravidian,South-Central Dravidian
Gade-lohar,25.0,75.0,Indo-European,Indic
Dolakha Newar,27.677414,86.075038,Sino-Tibetan,Newar
Ligurian (Miogliola),44.5147074,8.4509844,Indo-European,Romance
Asturian (Western),43.5,-6.2,Indo-European,Romance
Savara,19.09,82.21,Dravidian,South-Central Dravidian
Mara (Lakher),22.229438,93.223042,Sino-Tibetan,Kuki-Chin-Naga
Kangri,31.91,76.37,Indo-European,Indic
Moklen,8.3,98.15,Austronesian,Moklen
Phan Rang Cham (eastern Cham),11.15,108.3,Austronesian,Malayic
Southern Sama,5.1,120.2,Austronesian,Sama-Bajaw
Ladakhi (Leh),31.578709,77.168508,Sino-Tibetan,Tibetic
Betta Kurumba,11.58,76.58,Dravidian,Tamil-Tulu
Nicobarese,9.0,93.0,Nicobarese,Nicobarese
Korean (Seoul),37.5,127,Koreanic,
Northern Kurdish (Kurmanji),38,43,Indo-European,Iranic
Catalan (Central),41.4,2.2,Indo-European,Romance
Samre,13.3,104.0,Mon-Khmer,Khmer
Swedish (Central),59.326142,17.9875455,Indo-European,Germanic
Kon̩d̩a Or Kubi,19.3,83.0,Dravidian,South-Central Dravidian
Forest Nenets,64.9,77.8,Uralic,Samoyed
Bakhtiari,32,50,Indo-European,Iranic
Elfdalian,61.23,14.04,Indo-European,Germanic
Wa,21.13,99.28,Mon-Khmer,Khmer
Nganasan (Avam),71.1,92.8,Uralic,Samoyed
Tundra Nenets (Central-Eastern),67.1,59.3,Uralic,Samoyed
Tangsa,27.3,96.25,Sino-Tibetan,Northern Naga
Saami,63.4,15.2,Uralic,Saami
Beserman (Šamardan),58.02,52.15,Uralic,Permic
Mehri (Oman),17.4,53,Semitic,South
Ukrainian (Standard),50,31.5,Indo-European,Slavic
Jaunsari,30.18,77.58,Indo-European,Indic
Romanian (Standard),44,26,Indo-European,Romance
Modern Aramaic (Northeastern),37.15,42.683333,Semitic,Northwest
Temiar,5,101.5,Mon-Khmer,Aslian
Phlong,15.1,99.0,Sino-Tibetan,Karen
Tai Nuea,24.119,100,Tai-Kadai,Tai
Russian (Standard),55.7,37.5,Indo-European,Slavic
Avar (Chadakolob),42.191,46.32,Nakh-Daghestanian,Avar-Andi
Northern Mansi (Sośva),64,65,Uralic,Ugric
Akha,21.265694,99.72393,Sino-Tibetan,Lolo-Burmese
Mao-naga,25.3,94.2,Sino-Tibetan,Kuki-Chin
Pat̩t̩an̩i,32.45,76.45,Sino-Tibetan,Bodic
Bats,42.0436409,45.3048537,Nakh-Daghestanian,Nakh
Lepca,27.1,88.3,Sino-Tibetan,Lepcha
Kumyk,43,47,Turkic,Qypchaq
Buriat (Standard),51.8,107.6,Mongolic,Oirat-Khalkha
Japhug,32.19013,102.06143,Sino-Tibetan,rGyalrongic
Northeastern Thai (Ubon),15.2286861,104.856,Tai-Kadai,Tai
Kamassian,55.0694491,94.8239931,Uralic,Samoyed
Pagasinan,16.0,120.2,Austronesian,Northern Philippines
Tosk Albanian (Korçë),40.6,20.8,Indo-European,Albanian
Wymysorys,49.9166289,19.1520875,Indo-European,Germanic
Phu Tai (Phanna Nikhom),17.323306,103.868,Tai-Kadai,Tai
Lisu (Flowery),25.800055,98.856354,Sino-Tibetan,Lolo-Burmese
Meadow Mari (Morki-Sernur),56.5,49,Uralic,Mari
Konda,17.6868159,83.2184815,Dravidian,Telugu-Kui
Israeli Hebrew,31.768319,35.21371,Semitic,Northwest
Chukchi,65.58,-171.04,Chukotko-Kamchatkan,Chukotkan
Sangdam Tibetan,27.813433,97.249,Sino-Tibetan,Tibetic
Gallong,27.75,96.31,Sino-Tibetan,Tani
Latgalian (Standard),56.55,26.93,Indo-European,Baltic
Andamanese,12.0,92.4,Andamanese,Great Andamanese
Jah-Hut,3.376993,102.201677,Mon-Khmer,Aslian
Lezgian (Güne),41.6,48.3,Nakh-Daghestanian,Lezgic
Min Dong Chinese (Fuzhou),26.074508,119.296494,Sino-Tibetan,Sinitic
Frisian (West),53.2003137,5.8185041,Indo-European,Germanic
Konkani,15.15,74.0,Indo-European,Indic
Baoan (Ñantoq),35.83197,102.73512,Mongolic,Qinghai-Gansu
Northern Thai (Chieng Mai),18.787747,98.993128,Tai-Kadai,Tai
Georgian,41.7,44.8,Kartvelian,Karto-Zan
Dongwang Tibetan,28.536776,99.659034,Sino-Tibetan,Tibetic
Muria Gondi,19.1071317,81.9534815,Dravidian,Telugu-Kui
Rusyn (Lemko),49.5,22,Indo-European,Slavic
Vaagri Boli,12.3,79.0,Indo-European,Indic
Dupaningan Agta,18.4,122.2,Austronesian,Philippine
Kannada (Standard),12.2958104,76.6393805,Dravidian,Tamil-Tulu
Hinuq,42.175646,45.989282,Nakh-Daghestanian,Tsezic
Kod̩agu,12.1,76.5,Dravidian,Southern Dravidian
Tamang (Dhankuta),26.994423,87.332382,Sino-Tibetan,TGMT
Nangchenpa Tibetan,32.206954,96.170717,Sino-Tibetan,Tibetic
Kusunda,28.0,84.4,Isolate,Kusunda
Öñge; Ong; Onge,10.45,92.25,Andamanese,South Andamanese
Siraiki,29.4,70.35,Indo-European,Iranian
Brag-g.yab Tibetan,30.60375,97.797947,Sino-Tibetan,Tibetic
Chechen (Ploskost),43.12,45.73,Nakh-Daghestanian,Nakh
South Azerbaijani (Tabriz),38.1,46.3,Turkic,Oghuz
Brokskat,35.2,76.3,Indo-European,Indic
Gurung (Western),28.333123,83.935676,Sino-Tibetan,TGMT
Caodeng rGyalrong,32.15233,101.70513,Sino-Tibetan,rGyalrongic
Pnar,25.530839,92.287216,Mon-Khmer,Khasian
Bulgarian (Standard),43,25,Indo-European,Slavic
Pacoh,16.25,107.1,Mon-Khmer,Katuic
Burushaski (Hunza),36.33,74.66,Isolate,
Kharia (Dudh),23.3,85.3,Mon-Khmer,Munda
Brahui (Sarāwān),29,66.6,Dravidian,Brahui
Mangghuer (Minhe Monguor),36.2401,102.80565,Mongolic,Qinghai-Gansu
Darkhat,51,99,Mongolic,Oirat-Khalkha
Friulian,46.0560624,13.2441624,Indo-European,Romance
Khasi,25.3,92.0,Mon-Khmer,Khasian
Lizu,28.343583,101.344917,Sino-Tibetan,Qiangic
Chandangs And Byangs,30.0,80.15,Sino-Tibetan,Bodic
Naukan Yupik,65.499321,-171.725708,Eskimo-Aleut,Yupik
Kulung,27.16,87.57,Sino-Tibetan,Bodic
Puxi,31.526355,103.258162,Sino-Tibetan,Qiangic
Mongghul (Huzhu Monguor),36.81643,101.9901,Mongolic,Qinghai-Gansu
Mah Meri,2.634804,101.72108,Mon-Khmer,Aslian
Remo (Hills variety),18.49309,83.005,Mon-Khmer,Munda
Komi-Zyrian (Syktyvkar),61.7,50.8,Uralic,Permic
Parauk,23.15,99.3,Mon-Khmer,Palaung-Khmuic
Manipuri,24.45,94.0,Sino-Tibetan,Kuki-Chin
Greek (Standard),38,24,Indo-European,Hellenic
Estonian (Standard),59.4,24.7,Uralic,Finnic
Andi,42.785123,46.26135,Nakh-Daghestanian,Avar-Andi
Soutern Tai (Nakhon Si Thammarat),8.4303975,99.963,Tai-Kadai,Tai
Lakkia,24.05,110.1,Tai-Kadai,Kadai
Adyghe,45.016459,40.23273,Northwest Caucasian,Circassian
Northern Khmer,14.35,103.15,Mon-Khmer,Khmer
Moyon,25.25,94.35,Sino-Tibetan,Kuki-Chin
Maithili (Madhubani),26.3468544,86.0715474,Indo-European,Indo-Aryan
Tuvan (Standard),51.7,94.4,Turkic,Sayan
Cebuano,10.3,123.9,Austronesian,Philippine
Itelmen,57.795,158.347,Chukotko-Kamchatkan,Kamchatkan
Tagalog,14.0,121.0,Austronesian,Meso-Philippine
Filipino,12.27,123.46,Austronesian,Meso-Philippine
Mal,19.2,101.15,Mon-Khmer,Khmer
Karelian (North),65.9,31.8,Uralic,Finnic
Solon,49.2,119.8,Tungusic,Northern Tungusic
Bhojpuri,25.466155,84.5222189,Indo-European,Indo-Aryan
Nicobarese,9.0,93.0,Nicobarese,Nicobarese
Forest Enets,68.7,86.3,Uralic,Samoyed
Thaadou,24.25,93.55,Sino-Tibetan,Kuki-Chin
Nar-Phu (Nar),28.751606,84.106094,Sino-Tibetan,TGMT
Mewati,27.74,76.95,Indo-European,Indic
Vietnamese (Hanoi),21.033333,105.85,Mon-Khmer,Vietic
Melung Tibetan,27.179969,99.293883,Sino-Tibetan,Tibetic
Kolyma Yukaghir,65.5,151.1,Yukaghir,
Sinhalese,8.0,81.0,Indo-European,Indic
Dingri Tibetan,28.649822,87.126966,Sino-Tibetan,Tibetic
Moksha (Standard),54.2,44.5,Uralic,Mordvinic
Nagamese,25.4,94.0,Creoles and Pidgins,Creoles and Pidgins
Aragonese (Chistabino),42.59,0.34,Indo-European,Romance
Eastern Mari,56.9,51,Uralic,Mari
Pite Saami,66.58,16.35,Uralic,Saamic
Southwestern Pashto (Kandahar),31.6,65.7,Indo-European,Iranic
Angami,25.4,94.3,Sino-Tibetan,Kuki-Chin
Sora (Gumma Hills),19.1912221,84.1857115,Mon-Khmer,Munda
Pengo,19.5,83.5,Dravidian,South-Central Dravidian
Lahu (Black),22.489616,99.920917,Sino-Tibetan,Lolo-Burmese
Basque (Baztan),43.2,-1.5,Basque,
Thulung; Thulung Rai,27.25,86.3,Sino-Tibetan,Bodic
Nivkh (West Sakhalin),53.3,141.8,Isolate,
Iron Ossetic (Standard),43.02,44.65,Indo-European,Iranic
Campidanese Sardinian (Sestu),39.3,9.1,Indo-European,Romance
Eastern Yiddish (Central),50,25,Indo-European,Germanic
Kapampangan (Balingcanaway),15.4849912,120.680381,Austronesian,Philippine
Rgyalthang Tibetan,27.825973,99.707128,Sino-Tibetan,Tibetic
Ter Saami,68.05,31.51,Uralic,Saamic
Shigatse Tibetan,29.266667,88.883333,Sino-Tibetan,Tibetic
Hakka Chinese,24.321389,116.119444,Sino-Tibetan,Sinitic
Gheg Albanian (North-Eastern),42.7,21.3,Indo-European,Albanian
Yolmo,28.031738,85.531783,Sino-Tibetan,Tibetic
Dutch,52.3747157,4.8986167,Indo-European,Germanic
Chantyal,28.51932,83.707752,Sino-Tibetan,TGMT
Lungchow,21.55,106.3,Tai-Kadai,Kam-Tai
Kinnauri; Kanauri,31.3,78.0,Sino-Tibetan,Bodic
Finnish (Standard),61,24.5,Uralic,Finnic
Soghpo Tibetan,30.851,101.926,Sino-Tibetan,Tibetic
Karen,18.0,97.0,Sino-Tibetan,Karen
Hindi,28.6,77.2,Indo-European,Indo-Aryan
Kurtoep,27.728893,91.175053,Sino-Tibetan,East Bodish
