# Fdb version 3
["bibtex scrapbook"] 1510693481 "scrapbook.aux" "scrapbook.bbl" "scrapbook" 1510694734
  "biblio.bib" 1510493766 19494 c45ffe638ecb792b89049249c5ad566b ""
  "scrapbook.aux" 1510694734 1194 4028c0d88d731ef721d35cdd6c6ad88d ""
  "unified.bst.bst" 0 -1 0 ""
  (generated)
  "scrapbook.blg"
  "scrapbook.bbl"
["pdflatex"] 1510694733 "scrapbook.tex" "scrapbook.pdf" "scrapbook" 1510694734
  "/usr/local/texlive/2017/texmf-dist/fonts/enc/dvips/base/8r.enc" 1480098666 4850 80dc9bab7f31fb78a000ccfed0e27cab ""
  "/usr/local/texlive/2017/texmf-dist/fonts/map/fontname/texfonts.map" 1480098670 3287 e6b82fe08f5336d4d5ebc73fb1152e87 ""
  "/usr/local/texlive/2017/texmf-dist/fonts/tfm/adobe/courier/pcrr7t.tfm" 1480098688 960 379cc0019370a9e0208a0a3f949f847a ""
  "/usr/local/texlive/2017/texmf-dist/fonts/tfm/adobe/courier/pcrr8r.tfm" 1480098688 1292 bd42be2f344128bff6d35d98474adfe3 ""
  "/usr/local/texlive/2017/texmf-dist/fonts/tfm/public/amsfonts/cmextra/cmex7.tfm" 1480098698 1004 54797486969f23fa377b128694d548df ""
  "/usr/local/texlive/2017/texmf-dist/fonts/tfm/public/amsfonts/cmextra/cmex8.tfm" 1480098698 988 bdf658c3bfc2d96d3c8b02cfc1c94c20 ""
  "/usr/local/texlive/2017/texmf-dist/fonts/tfm/public/amsfonts/cmextra/cmex9.tfm" 1480098698 996 a18840b13b499c08ac2de96a99eda4bc ""
  "/usr/local/texlive/2017/texmf-dist/fonts/tfm/public/cm/cmbx10.tfm" 1480098701 1328 c834bbb027764024c09d3d2bf908b5f0 ""
  "/usr/local/texlive/2017/texmf-dist/fonts/tfm/public/cm/cmbx12.tfm" 1480098701 1324 c910af8c371558dc20f2d7822f66fe64 ""
  "/usr/local/texlive/2017/texmf-dist/fonts/tfm/public/cm/cmex10.tfm" 1480098701 992 662f679a0b3d2d53c1b94050fdaa3f50 ""
  "/usr/local/texlive/2017/texmf-dist/fonts/tfm/public/cm/cmmi10.tfm" 1480098701 1528 abec98dbc43e172678c11b3b9031252a ""
  "/usr/local/texlive/2017/texmf-dist/fonts/tfm/public/cm/cmmi12.tfm" 1480098701 1524 4414a8315f39513458b80dfc63bff03a ""
  "/usr/local/texlive/2017/texmf-dist/fonts/tfm/public/cm/cmmi6.tfm" 1480098701 1512 f21f83efb36853c0b70002322c1ab3ad ""
  "/usr/local/texlive/2017/texmf-dist/fonts/tfm/public/cm/cmmi8.tfm" 1480098701 1520 eccf95517727cb11801f4f1aee3a21b4 ""
  "/usr/local/texlive/2017/texmf-dist/fonts/tfm/public/cm/cmmi9.tfm" 1480098701 1524 d89e2d087a9828407a196f428428ef4a ""
  "/usr/local/texlive/2017/texmf-dist/fonts/tfm/public/cm/cmr10.tfm" 1480098701 1296 45809c5a464d5f32c8f98ba97c1bb47f ""
  "/usr/local/texlive/2017/texmf-dist/fonts/tfm/public/cm/cmr12.tfm" 1480098701 1288 655e228510b4c2a1abe905c368440826 ""
  "/usr/local/texlive/2017/texmf-dist/fonts/tfm/public/cm/cmr17.tfm" 1480098701 1292 296a67155bdbfc32aa9c636f21e91433 ""
  "/usr/local/texlive/2017/texmf-dist/fonts/tfm/public/cm/cmr6.tfm" 1480098701 1300 b62933e007d01cfd073f79b963c01526 ""
  "/usr/local/texlive/2017/texmf-dist/fonts/tfm/public/cm/cmr8.tfm" 1480098701 1292 21c1c5bfeaebccffdb478fd231a0997d ""
  "/usr/local/texlive/2017/texmf-dist/fonts/tfm/public/cm/cmr9.tfm" 1480098701 1292 6b21b9c2c7bebb38aa2273f7ca0fb3af ""
  "/usr/local/texlive/2017/texmf-dist/fonts/tfm/public/cm/cmsl10.tfm" 1480098701 1508 efecb4a315fe0975509670a272d75ef5 ""
  "/usr/local/texlive/2017/texmf-dist/fonts/tfm/public/cm/cmss10.tfm" 1480098701 1316 b636689f1933f24d1294acdf6041daaa ""
  "/usr/local/texlive/2017/texmf-dist/fonts/tfm/public/cm/cmsy10.tfm" 1480098701 1124 6c73e740cf17375f03eec0ee63599741 ""
  "/usr/local/texlive/2017/texmf-dist/fonts/tfm/public/cm/cmsy6.tfm" 1480098701 1116 933a60c408fc0a863a92debe84b2d294 ""
  "/usr/local/texlive/2017/texmf-dist/fonts/tfm/public/cm/cmsy8.tfm" 1480098701 1120 8b7d695260f3cff42e636090a8002094 ""
  "/usr/local/texlive/2017/texmf-dist/fonts/tfm/public/cm/cmsy9.tfm" 1480098701 1116 25a7bf822c58caf309a702ef79f4afbb ""
  "/usr/local/texlive/2017/texmf-dist/fonts/tfm/public/cm/cmti10.tfm" 1480098701 1480 aa8e34af0eb6a2941b776984cf1dfdc4 ""
  "/usr/local/texlive/2017/texmf-dist/fonts/tfm/public/tipa/tipa10.tfm" 1480098718 1920 8604b12a16d79ccdaa2f671dda04ba87 ""
  "/usr/local/texlive/2017/texmf-dist/fonts/type1/public/amsfonts/cm/cmbx12.pfb" 1480098733 32080 340ef9bf63678554ee606688e7b5339d ""
  "/usr/local/texlive/2017/texmf-dist/fonts/type1/public/amsfonts/cm/cmex10.pfb" 1480098733 30251 6afa5cb1d0204815a708a080681d4674 ""
  "/usr/local/texlive/2017/texmf-dist/fonts/type1/public/amsfonts/cm/cmmi10.pfb" 1480098733 36299 5f9df58c2139e7edcf37c8fca4bd384d ""
  "/usr/local/texlive/2017/texmf-dist/fonts/type1/public/amsfonts/cm/cmmi8.pfb" 1480098733 35469 70d41d2b9ea31d5d813066df7c99281c ""
  "/usr/local/texlive/2017/texmf-dist/fonts/type1/public/amsfonts/cm/cmmi9.pfb" 1480098733 36094 798f80770b3b148ceedd006d487db67c ""
  "/usr/local/texlive/2017/texmf-dist/fonts/type1/public/amsfonts/cm/cmr10.pfb" 1480098733 35752 024fb6c41858982481f6968b5fc26508 ""
  "/usr/local/texlive/2017/texmf-dist/fonts/type1/public/amsfonts/cm/cmr17.pfb" 1480098733 32362 179c33bbf43f19adbb3825bb4e36e57a ""
  "/usr/local/texlive/2017/texmf-dist/fonts/type1/public/amsfonts/cm/cmr6.pfb" 1480098733 32734 69e00a6b65cedb993666e42eedb3d48f ""
  "/usr/local/texlive/2017/texmf-dist/fonts/type1/public/amsfonts/cm/cmr8.pfb" 1480098733 32726 0a1aea6fcd6468ee2cf64d891f5c43c8 ""
  "/usr/local/texlive/2017/texmf-dist/fonts/type1/public/amsfonts/cm/cmr9.pfb" 1480098733 33993 9b89b85fd2d9df0482bd47194d1d3bf3 ""
  "/usr/local/texlive/2017/texmf-dist/fonts/type1/public/amsfonts/cm/cmsy10.pfb" 1480098733 32569 5e5ddc8df908dea60932f3c484a54c0d ""
  "/usr/local/texlive/2017/texmf-dist/fonts/type1/public/amsfonts/cm/cmsy8.pfb" 1480098733 32626 4f5c1b83753b1dd3a97d1b399a005b4b ""
  "/usr/local/texlive/2017/texmf-dist/fonts/type1/public/amsfonts/cm/cmti10.pfb" 1480098733 37944 359e864bd06cde3b1cf57bb20757fb06 ""
  "/usr/local/texlive/2017/texmf-dist/fonts/type1/public/tipa/tipa10.pfb" 1480098746 66981 db8743012a503bce4db4edd88992c8b5 ""
  "/usr/local/texlive/2017/texmf-dist/fonts/type1/urw/courier/ucrr8a.pfb" 1480098746 45758 19968a0990191524e34e1994d4a31cb6 ""
  "/usr/local/texlive/2017/texmf-dist/fonts/vf/adobe/courier/pcrr7t.vf" 1480098757 1344 6ff472164bf9de0fb2e864b28ac156d9 ""
  "/usr/local/texlive/2017/texmf-dist/tex/context/base/mkii/supp-pdf.mkii" 1480098806 71627 94eb9990bed73c364d7f53f960cc8c5b ""
  "/usr/local/texlive/2017/texmf-dist/tex/generic/oberdiek/etexcmds.sty" 1480098815 7612 729a8cc22a1ee0029997c7f74717ae05 ""
  "/usr/local/texlive/2017/texmf-dist/tex/generic/oberdiek/ifluatex.sty" 1480098815 7324 2310d1247db0114eb4726807c8837a0e ""
  "/usr/local/texlive/2017/texmf-dist/tex/generic/oberdiek/ifpdf.sty" 1490564930 1251 d170e11a3246c3392bc7f59595af42cb ""
  "/usr/local/texlive/2017/texmf-dist/tex/generic/oberdiek/infwarerr.sty" 1480098815 8253 473e0e41f9adadb1977e8631b8f72ea6 ""
  "/usr/local/texlive/2017/texmf-dist/tex/generic/oberdiek/kvdefinekeys.sty" 1480098815 5152 b67a3a964ad9851e095110c854a1d461 ""
  "/usr/local/texlive/2017/texmf-dist/tex/generic/oberdiek/kvsetkeys.sty" 1480098815 14040 ac8866aac45982ac84021584b0abb252 ""
  "/usr/local/texlive/2017/texmf-dist/tex/generic/oberdiek/ltxcmds.sty" 1480098815 18425 5b3c0c59d76fac78978b5558e83c1f36 ""
  "/usr/local/texlive/2017/texmf-dist/tex/generic/oberdiek/pdftexcmds.sty" 1490564930 20151 72b3c7cacb61f7dd527505c39a23f7c1 ""
  "/usr/local/texlive/2017/texmf-dist/tex/latex/amsmath/amsbsy.sty" 1480098820 2210 5c54ab129b848a5071554186d0168766 ""
  "/usr/local/texlive/2017/texmf-dist/tex/latex/amsmath/amsgen.sty" 1480098820 4160 c115536cf8d4ff25aa8c1c9bc4ecb79a ""
  "/usr/local/texlive/2017/texmf-dist/tex/latex/amsmath/amsmath.sty" 1485129665 84329 81aa65c5042562f79cb421feff9b8bdc ""
  "/usr/local/texlive/2017/texmf-dist/tex/latex/amsmath/amsopn.sty" 1480098820 4115 318a66090112f3aa3f415aeb6fe8540f ""
  "/usr/local/texlive/2017/texmf-dist/tex/latex/amsmath/amstext.sty" 1480098820 2431 fe3078ec12fc30287f568596f8e0b948 ""
  "/usr/local/texlive/2017/texmf-dist/tex/latex/base/article.cls" 1480098821 19821 310da678527a7dfe2a02c88af38079b7 ""
  "/usr/local/texlive/2017/texmf-dist/tex/latex/base/fontenc.sty" 1492297155 4571 13977df0eda144b93597fc709035ad1f ""
  "/usr/local/texlive/2017/texmf-dist/tex/latex/base/inputenc.sty" 1480098821 4732 d63eda807ac82cca2ca8488efd31a966 ""
  "/usr/local/texlive/2017/texmf-dist/tex/latex/base/omscmr.fd" 1480098821 2256 80ce1168fb4ce6a85583a9cf8972c013 ""
  "/usr/local/texlive/2017/texmf-dist/tex/latex/base/omsenc.dfu" 1487721667 2004 ac51aeac484f08c01026120d62677eca ""
  "/usr/local/texlive/2017/texmf-dist/tex/latex/base/ot1enc.def" 1492297155 4451 e36bea954836d28db0f365c8f2f2ffcb ""
  "/usr/local/texlive/2017/texmf-dist/tex/latex/base/ot1enc.dfu" 1487721667 3181 1cb3e9ad01f4a01127b2ffd821bfeec7 ""
  "/usr/local/texlive/2017/texmf-dist/tex/latex/base/size11.clo" 1480098821 8308 f91506bb4df6d8527331f7bbeaf0e63c ""
  "/usr/local/texlive/2017/texmf-dist/tex/latex/base/t1enc.dfu" 1487721667 11255 9d97362866549d3d3c994b5f28d1b9b5 ""
  "/usr/local/texlive/2017/texmf-dist/tex/latex/base/utf8.def" 1487721667 7784 325a2a09984cb5c4ff230f9867145ad3 ""
  "/usr/local/texlive/2017/texmf-dist/tex/latex/booktabs/booktabs.sty" 1480098823 5869 94335281ffcab47f341cf07ea8220e30 ""
  "/usr/local/texlive/2017/texmf-dist/tex/latex/caption/caption.sty" 1480098823 66233 8b81cfab95a1f8fc2f0f6c89415b087a ""
  "/usr/local/texlive/2017/texmf-dist/tex/latex/caption/caption3.sty" 1480098823 64866 1ea74c5f2d1685881497f021b8f186b2 ""
  "/usr/local/texlive/2017/texmf-dist/tex/latex/caption/ltcaption.sty" 1480098823 7257 dd37a106002acb997b6c947cf18f297e ""
  "/usr/local/texlive/2017/texmf-dist/tex/latex/fancyvrb/fancyvrb.sty" 1480098827 45360 a0833d32f1b541964596b02870342d5a ""
  "/usr/local/texlive/2017/texmf-dist/tex/latex/graphics-cfg/graphics.cfg" 1480098830 1224 978390e9c2234eab29404bc21b268d1e ""
  "/usr/local/texlive/2017/texmf-dist/tex/latex/graphics-def/pdftex.def" 1485129666 58250 3792a9d2d1d664ee8c742498e295b051 ""
  "/usr/local/texlive/2017/texmf-dist/tex/latex/graphics/graphics.sty" 1492297155 14603 b288c52bd5d46d593af31dbc7e548236 ""
  "/usr/local/texlive/2017/texmf-dist/tex/latex/graphics/graphicx.sty" 1480098830 8125 557ab9f1bfa80d369fb45a914aa8a3b4 ""
  "/usr/local/texlive/2017/texmf-dist/tex/latex/graphics/keyval.sty" 1480098830 2594 d18d5e19aa8239cf867fa670c556d2e9 ""
  "/usr/local/texlive/2017/texmf-dist/tex/latex/graphics/trig.sty" 1480098830 3980 0a268fbfda01e381fa95821ab13b6aee ""
  "/usr/local/texlive/2017/texmf-dist/tex/latex/latexconfig/epstopdf-sys.cfg" 1480098833 678 4792914a8f45be57bb98413425e4c7af ""
  "/usr/local/texlive/2017/texmf-dist/tex/latex/listings/listings.cfg" 1480098833 1827 d72ad54409ca5c1068a1939c63441bd2 ""
  "/usr/local/texlive/2017/texmf-dist/tex/latex/listings/listings.sty" 1480098833 80336 ff90c926c3d7bfdaa3d80ca57123b0bb ""
  "/usr/local/texlive/2017/texmf-dist/tex/latex/listings/lstmisc.sty" 1480098833 77028 c3eb00afb55a32bc13ca8da7f5234377 ""
  "/usr/local/texlive/2017/texmf-dist/tex/latex/natbib/natbib.sty" 1480098835 45456 1c8843383c0bd05870c45fa0ebea6cc2 ""
  "/usr/local/texlive/2017/texmf-dist/tex/latex/oberdiek/epstopdf-base.sty" 1480098836 12095 5337833c991d80788a43d3ce26bd1c46 ""
  "/usr/local/texlive/2017/texmf-dist/tex/latex/oberdiek/grfext.sty" 1480098836 7075 2fe3d848bba95f139de11ded085e74aa ""
  "/usr/local/texlive/2017/texmf-dist/tex/latex/oberdiek/kvoptions.sty" 1480098836 22417 1d9df1eb66848aa31b18a593099cf45c ""
  "/usr/local/texlive/2017/texmf-dist/tex/latex/psnfss/courier.sty" 1480098837 804 52ceb7e4cfdff7c69f852f42880bf040 ""
  "/usr/local/texlive/2017/texmf-dist/tex/latex/psnfss/ot1pcr.fd" 1480098837 985 1ed784d7bfe47179f3550d2303b073f8 ""
  "/usr/local/texlive/2017/texmf-dist/tex/latex/tipa/t3cmr.fd" 1480098841 1257 fd5b1c2f0106f9cf12cdb2ff961987c5 ""
  "/usr/local/texlive/2017/texmf-dist/tex/latex/tipa/t3enc.def" 1480098841 26483 c461a68c34040cb0d96c43e86c012a6d ""
  "/usr/local/texlive/2017/texmf-dist/tex/latex/tipa/tipa.sty" 1480098841 21394 82fa9965637ca62399434739ae5998f6 ""
  "/usr/local/texlive/2017/texmf-dist/tex/latex/tools/longtable.sty" 1480098841 12083 80916157594a8e4354985aaefae4f367 ""
  "/usr/local/texlive/2017/texmf-dist/web2c/texmf.cnf" 1494087824 32646 eadc4ca26cdbe7105ac7c593aa8c4f72 ""
  "/usr/local/texlive/2017/texmf-var/fonts/map/pdftex/updmap/pdftex.map" 1495593472 2350277 a699055bee05bf8a40b0504752487295 ""
  "/usr/local/texlive/2017/texmf-var/web2c/pdftex/pdflatex.fmt" 1501762088 4129591 0db3118a0bad4df09cf7d772d1abd5e3 ""
  "/usr/local/texlive/2017/texmf.cnf" 1495593465 577 2b71d4d888f9e5560b2e99985915a9fa ""
  "images/CRCJ_vals_distributions.pdf" 1510485489 5962 7bee9b4e47c8aba253035b93e1367053 ""
  "images/Jaccard_vals_distributions.pdf" 1510485425 6143 308a1f166ae5a3aabe28ef600255d918 ""
  "scrapbook.aux" 1510694734 1194 4028c0d88d731ef721d35cdd6c6ad88d ""
  "scrapbook.bbl" 1510693481 764 52ed893814eb29f00865153e5a975c3d "bibtex scrapbook"
  "scrapbook.tex" 1510694674 15186 90b104bcc757de3737871a460868e4ee ""
  (generated)
  "scrapbook.aux"
  "scrapbook.pdf"
  "scrapbook.log"
