\relax 
\@writefile{lot}{\contentsline {table}{\numberline {1}{\ignorespaces Sample sizes\relax }}{1}}
\providecommand*\caption@xref[2]{\@setref\relax\@undefined{#1}}
\newlabel{sample-sizes}{{1}{1}}
\citation{lindblom_maddieson_1988}
\bibstyle{unified.bst}
\bibdata{biblio}
\bibcite{lindblom_maddieson_1988}{{1}{1988}{{Lindblom \& Maddieson}}{{}}}
\@writefile{lof}{\contentsline {figure}{\numberline {1}{\ignorespaces Distribution of Jaccard distances\relax }}{3}}
\newlabel{fig:jaccard-distances}{{1}{3}}
\newlabel{lst:jaccard}{{1}{3}}
\@writefile{lol}{\contentsline {lstlisting}{\numberline {1}Dunn test of group differences in Jaccard dissimularity values}{3}}
\@writefile{lof}{\contentsline {figure}{\numberline {2}{\ignorespaces Distribution of CRCJ distances\relax }}{4}}
\newlabel{fig:CRCJ-distances}{{2}{4}}
\newlabel{lst:crcj}{{2}{4}}
\@writefile{lol}{\contentsline {lstlisting}{\numberline {2}Dunn test of group differences in CRCJ dissimularity values}{4}}
\@writefile{lot}{\contentsline {table}{\numberline {2}{\ignorespaces Drop in residual deviance\relax }}{5}}
\newlabel{tbl:residual-deviance}{{2}{5}}
\gdef \LT@i {\LT@entry 
    {4}{200.98067pt}\LT@entry 
    {1}{115.52219pt}}
